id,first_name,last_name,email,country,ip_address
1,Stephen,Reynolds,sreynolds@avamm.biz,Turkmenistan,76.223.180.45
2,Paul,Rivera,privera@yata.edu,New Caledonia,213.57.181.69
3,John,Nelson,jnelson@photobean.mil,Laos,237.96.105.24
4,Diane,Andrews,dandrews@meevee.edu,Gambia,52.4.86.187
5,Jennifer,Wallace,jwallace@plajo.gov,Guernsey,217.121.173.205
6,Larry,Warren,lwarren@mybuzz.info,Paraguay,71.133.45.35
7,Jacqueline,Wagner,jwagner@photospace.info,Nicaragua,210.201.217.54
8,Nicole,Lawrence,nlawrence@twitterworks.com,Laos,197.80.107.211
9,Teresa,Kim,tkim@yakijo.edu,United Arab Emirates,110.146.108.105
10,Alan,Garrett,agarrett@twitterworks.biz,Bouvet Island,250.67.186.250
11,Willie,Dean,wdean@jetpulse.edu,Guinea,231.161.217.249
12,Phillip,Gardner,pgardner@pixope.edu,Bosnia and Herzegovina,238.16.42.60
13,Thomas,Ward,tward@twitternation.mil,USSR,34.10.140.3
14,Ralph,Bailey,rbailey@skiba.name,Lebanon,47.49.173.141
15,Chris,Diaz,cdiaz@mita.gov,Bulgaria,18.95.155.36
16,Martha,Daniels,mdaniels@tagopia.name,Uruguay,156.95.51.97
17,Henry,Gray,hgray@yozio.gov,Iran,102.223.36.180
18,Margaret,Hicks,mhicks@kwimbee.org,Vietnam,169.55.26.4
19,Jane,Williams,jwilliams@leenti.net,Bulgaria,119.16.28.203
20,David,Bell,dbell@dabtype.biz,Latvia,78.137.176.238
21,Catherine,Duncan,cduncan@voomm.name,Morocco,84.174.0.183
22,Clarence,Fisher,cfisher@youbridge.gov,Swaziland,146.77.181.5
23,Christina,Duncan,cduncan@dabjam.name,Saint Pierre and Miquelon,254.254.138.129
24,Jesse,Fernandez,jfernandez@brainverse.gov,Aruba,191.246.209.4
25,Michael,Morris,mmorris@kazu.name,Albania,80.202.230.236
26,Theresa,Bennett,tbennett@flipopia.info,Puerto Rico,20.62.151.213
27,Joan,Watkins,jwatkins@buzzbean.net,Seychelles,20.15.156.127
28,Irene,Nguyen,inguyen@avaveo.com,Syria,42.86.5.232
29,Karen,Ryan,kryan@jamia.name,Guinea,98.72.177.102
30,Frank,White,fwhite@thoughtsphere.mil,Iran,100.253.185.211
31,Michael,Elliott,melliott@tagfeed.org,Singapore,134.211.139.187
32,Louise,Chapman,lchapman@jabbersphere.edu,Indonesia,227.245.210.155
33,Joe,Ferguson,jferguson@jabbertype.edu,Lebanon,126.122.165.229
34,Shawn,Ruiz,sruiz@buzzbean.biz,Tanzania,104.231.12.219
35,Benjamin,Walker,bwalker@shuffledrive.edu,Barbados,150.102.223.242
36,Ralph,Hansen,rhansen@jayo.edu,New Caledonia,221.145.80.95
37,Kimberly,Carpenter,kcarpenter@tavu.net,Rwanda,84.111.238.48
38,Thomas,Wright,twright@wikivu.biz,Panama,112.190.148.85
39,Paula,Ellis,pellis@gabtune.net,Swaziland,247.126.26.153
40,Alan,Howell,ahowell@edgepulse.com,Serbia,79.202.63.154
41,Dennis,Perez,dperez@meezzy.gov,Liberia,51.214.188.155
42,Amanda,White,awhite@edgeclub.biz,Kuwait,151.10.83.18
43,Lois,Cole,lcole@vitz.com,South Georgia and the South Sandwich Islands,169.28.114.0
44,Linda,Gonzalez,lgonzalez@wikizz.biz,Suriname,245.95.164.199
45,Christina,Dixon,cdixon@browsezoom.com,Indonesia,137.227.76.207
46,Amy,George,ageorge@tagfeed.gov,Suriname,74.237.207.223
47,Matthew,Simmons,msimmons@blognation.biz,Samoa,207.1.100.119
48,Jose,Rose,jrose@topicware.biz,Lesotho,50.170.97.109
49,Larry,James,ljames@blogtag.name,Luxembourg,91.135.94.51
50,Ann,Fowler,afowler@kare.edu,Papua New Guinea,27.225.4.77
51,Carolyn,Clark,cclark@cogidoo.org,Saint Lucia,25.109.143.206
52,Thomas,Tucker,ttucker@feedfire.com,Panama,153.180.235.201
53,David,Jacobs,djacobs@camimbo.info,Svalbard and Jan Mayen Islands,161.31.120.32
54,Kevin,Marshall,kmarshall@tagopia.biz,Eritrea,161.250.238.61
55,Cynthia,Diaz,cdiaz@katz.gov,Antarctica,29.37.229.24
56,David,Fernandez,dfernandez@realblab.org,Trinidad and Tobago,91.213.16.152
57,Karen,Gomez,kgomez@dynava.name,Jersey,84.230.66.94
58,Janet,Gordon,jgordon@oozz.net,Ethiopia,235.61.56.136
59,Melissa,Lawrence,mlawrence@skipfire.biz,Mali,205.157.152.188
60,Carl,Berry,cberry@realfire.net,New Caledonia,71.136.26.205
61,Wayne,Bishop,wbishop@yodel.gov,Mayotte,240.18.145.183
62,Annie,Mcdonald,amcdonald@zoombox.net,American Samoa,36.171.144.53
63,Charles,Bell,cbell@eadel.name,Western Sahara,241.225.144.20
64,Cynthia,Thompson,cthompson@youtags.gov,Faroe Islands,56.13.85.203
65,Amy,Williamson,awilliamson@talane.info,Yugoslavia,38.166.225.149
66,Robin,Morgan,rmorgan@tekfly.gov,Gabon,133.76.195.71
67,Mark,Frazier,mfrazier@oyondu.net,Kuwait,24.138.62.143
68,Anne,King,aking@yoveo.biz,Ukraine,221.56.21.180
69,Samuel,Davis,sdavis@brainbox.edu,Singapore,147.149.144.199
70,Joe,Miller,jmiller@babbleopia.name,Chile,143.141.59.248
71,Walter,Peterson,wpeterson@realcube.name,Turks and Caicos Islands,135.75.154.119
72,Linda,Jacobs,ljacobs@skiba.info,Senegal,221.173.157.157
73,Janet,Peters,jpeters@flipbug.biz,Falkland Islands (Malvinas),250.85.69.199
74,Marilyn,Russell,mrussell@skivee.net,Serbia,139.73.33.208
75,Ruth,Carroll,rcarroll@jamia.name,Ascension Island,150.155.8.235
76,James,Snyder,jsnyder@myworks.name,Dominican Republic,111.248.154.169
77,Melissa,Hunter,mhunter@yakijo.gov,Papua New Guinea,11.150.112.96
78,Ashley,Bradley,abradley@quamba.org,Isle of Man,103.95.36.77
79,Debra,Reynolds,dreynolds@oyoyo.edu,Moldova,161.0.18.122
80,Julie,Russell,jrussell@oyondu.com,Madagascar,82.183.167.131
81,Ashley,Berry,aberry@lazzy.name,Micronesia,183.85.22.189
82,Diane,Schmidt,dschmidt@devbug.mil,Comoros,212.244.200.110
83,Russell,Morrison,rmorrison@skyndu.edu,Azerbaijan,146.170.50.159
84,Howard,Weaver,hweaver@brainverse.edu,United States Virgin Islands,94.202.123.14
85,Wanda,Butler,wbutler@twitterbeat.org,Andorra,83.50.248.216
86,Willie,Lawson,wlawson@cogidoo.mil,British Indian Ocean Territory,31.112.57.164
87,Brandon,Garrett,bgarrett@mybuzz.gov,Slovakia,80.134.56.13
88,Michelle,Ramos,mramos@ozu.info,San Marino,55.231.102.177
89,Howard,Watkins,hwatkins@zoovu.com,Belarus,0.183.201.225
90,Karen,Jackson,kjackson@photofeed.edu,El Salvador,21.41.13.202
91,Willie,Hicks,whicks@jumpxs.org,Czech Republic,154.215.216.63
92,Nancy,Young,nyoung@aimbo.net,Antarctica,43.157.85.195
93,Catherine,Wheeler,cwheeler@dynabox.edu,Burundi,28.37.90.156
94,Stephanie,Owens,sowens@buzzster.com,Saint Helena,253.203.118.148
95,Mary,Chapman,mchapman@minyx.com,Isle of Man,160.218.220.241
96,Jesse,Ford,jford@edgewire.com,Ecuador,217.35.222.214
97,Steve,Allen,sallen@tagfeed.net,Lebanon,114.182.22.99
98,Mildred,Foster,mfoster@meembee.gov,Russia,35.43.240.210
99,Patrick,Larson,plarson@tekfly.edu,"Congo, Democratic Republic of",86.193.161.213
100,Patricia,Garza,pgarza@dablist.info,Burkina Faso,48.162.174.122
101,Kevin,Elliott,kelliott@rhynoodle.gov,Nauru,39.39.118.237
102,Kimberly,West,kwest@omba.org,Sri Lanka,35.208.140.165
103,Marie,Garcia,mgarcia@voomm.info,Cyprus,51.98.92.145
104,Larry,Bryant,lbryant@skibox.org,Zimbabwe,13.205.173.58
105,Lois,Wagner,lwagner@vinte.edu,Russia,133.237.154.86
106,Steve,Carter,scarter@rhybox.name,Nicaragua,88.26.196.87
107,Martin,Bell,mbell@skinix.edu,Montenegro,160.248.44.247
108,Judith,Schmidt,jschmidt@jabberstorm.net,Northern Mariana Islands,85.209.79.36
109,Annie,Watkins,awatkins@cogilith.gov,Armenia,77.149.79.63
110,Sarah,Gonzalez,sgonzalez@vinder.info,Zambia,26.215.44.164
111,Anna,Fisher,afisher@skalith.name,Guadeloupe,55.22.161.137
112,Helen,Williams,hwilliams@lazzy.com,Christmas Island,254.140.80.98
113,Samuel,Gutierrez,sgutierrez@fatz.edu,Turks and Caicos Islands,178.31.225.73
114,Raymond,Gonzalez,rgonzalez@demimbu.info,Mali,120.129.97.133
115,Stephen,Long,slong@zoovu.info,Ghana,92.123.154.45
116,Melissa,Montgomery,mmontgomery@demivee.mil,Finland,210.195.249.240
117,Victor,Chavez,vchavez@avamm.edu,Japan,97.203.128.8
118,Todd,Young,tyoung@thoughtworks.info,Hungary,68.20.222.157
119,Evelyn,Jenkins,ejenkins@devshare.name,Saint Kitts and Nevis,142.87.41.199
120,Janet,Jordan,jjordan@muxo.org,Jamaica,69.60.207.190
121,Randy,Welch,rwelch@fanoodle.com,Burkina Faso,71.124.135.14
122,Roy,Bell,rbell@lazzy.org,Cuba,21.66.128.112
123,Carol,Hudson,chudson@flipstorm.net,Marshall Islands,217.226.131.25
124,Mark,Mills,mmills@twitterbeat.org,Libya,169.27.72.13
125,Doris,Gomez,dgomez@kazio.name,Kiribati,56.131.85.59
126,George,Nichols,gnichols@snaptags.gov,Macau,65.39.18.193
127,Amy,Grant,agrant@photojam.gov,Kuwait,87.54.95.196
128,Debra,Morales,dmorales@voolia.com,Qatar,47.234.168.199
129,Kathryn,Bishop,kbishop@ntag.mil,Cocos (Keeling) Island,113.216.108.86
130,Russell,Spencer,rspencer@voomm.org,Greenland,243.61.223.232
131,Sharon,Mendoza,smendoza@gigabox.edu,Hong Kong,8.231.179.85
132,Matthew,Daniels,mdaniels@ailane.info,Grenada,101.150.4.154
133,Paul,Williamson,pwilliamson@abata.info,Palau,104.226.236.185
134,Walter,Hanson,whanson@mybuzz.name,Togo,138.32.223.151
135,Jonathan,Russell,jrussell@abata.org,Ecuador,77.205.146.21
136,Patricia,Moore,pmoore@cogidoo.net,Azerbaijan,146.23.1.250
137,Nicole,Long,nlong@lazz.name,Spain,10.236.105.218
138,Todd,Russell,trussell@devify.mil,Papua New Guinea,140.227.60.253
139,Virginia,Hanson,vhanson@gigazoom.mil,Singapore,125.149.37.4
140,Raymond,Romero,rromero@twiyo.name,US Minor Outlying Islands,228.3.238.23
141,Charles,Brown,cbrown@browsecat.gov,Kuwait,198.238.181.118
142,Amanda,Morales,amorales@youspan.mil,Uzbekistan,151.86.252.74
143,Jane,Gibson,jgibson@feedmix.net,Angola,241.210.209.54
144,Arthur,Hill,ahill@skinix.info,Sao Tome and Principe,255.110.18.40
145,Debra,James,djames@rhynoodle.net,Finland,193.84.47.242
146,Chris,Matthews,cmatthews@reallinks.biz,Mali,181.29.242.91
147,Rebecca,Powell,rpowell@voonder.org,Sao Tome and Principe,247.252.62.148
148,Helen,Jenkins,hjenkins@cogilith.com,Kyrgyzstan,87.208.131.227
149,Benjamin,Baker,bbaker@eare.net,Bulgaria,52.72.163.201
150,Larry,Chapman,lchapman@mynte.edu,Croatia,60.141.170.110
151,Johnny,Ray,jray@edgeclub.gov,Denmark,159.12.208.144
152,Amy,Grant,agrant@thoughtbeat.mil,USSR,62.217.7.174
153,Denise,Hunter,dhunter@yodo.edu,Mexico,209.51.28.167
154,Kathy,Powell,kpowell@aibox.biz,Aruba,17.246.167.29
155,Cheryl,Carroll,ccarroll@feedfish.gov,Guatemala,45.189.62.168
156,Eric,Brown,ebrown@oba.edu,Svalbard and Jan Mayen Islands,65.203.102.178
157,Jose,Green,jgreen@flashdog.net,Jordan,142.74.128.178
158,Joshua,Larson,jlarson@voonder.mil,Moldova,75.214.13.245
159,Craig,Webb,cwebb@feedspan.com,Turkmenistan,86.112.41.191
160,William,Hudson,whudson@aibox.org,Equatorial Guinea,216.172.56.122
161,Charles,Gibson,cgibson@yacero.org,Nauru,57.219.136.152
162,Paul,Baker,pbaker@avavee.org,Iran,3.80.50.47
163,Fred,Watson,fwatson@camimbo.biz,Tunisia,174.17.123.215
164,Carlos,Sims,csims@riffpedia.org,Niger,204.118.37.114
165,Victor,Olson,volson@tagchat.mil,Uruguay,29.192.17.120
166,Rachel,Ward,rward@feedmix.gov,Vanuatu,102.177.253.142
167,Jennifer,Ortiz,jortiz@photospace.com,Netherlands,201.66.155.197
168,Gloria,Garrett,ggarrett@dabjam.biz,United States Virgin Islands,16.11.5.237
169,Todd,Meyer,tmeyer@trudeo.org,Bhutan,22.164.137.18
170,Anne,Carter,acarter@mita.edu,Indonesia,62.66.107.230
171,Maria,Hernandez,mhernandez@livez.gov,Bouvet Island,118.33.204.191
172,Diana,Fowler,dfowler@browsebug.com,Lebanon,38.138.46.89
173,Louis,Welch,lwelch@jetwire.gov,Cambodia,33.29.18.169
174,Betty,Gutierrez,bgutierrez@browsebug.org,Ethiopia,78.180.110.123
175,Kevin,Carpenter,kcarpenter@youopia.name,South Georgia and the South Sandwich Islands,150.244.58.1
176,Michelle,Grant,mgrant@jatri.org,Panama,162.103.142.66
177,Rachel,Matthews,rmatthews@blogxs.org,Vietnam,136.104.95.205
178,Peter,Mcdonald,pmcdonald@shufflebeat.info,Marshall Islands,238.176.166.43
179,Fred,Rivera,frivera@quinu.edu,Costa Rica,63.245.121.128
180,Larry,Day,lday@fiveclub.name,Tunisia,57.122.126.235
181,Frances,Phillips,fphillips@zoomdog.com,Pakistan,212.132.198.241
182,Christopher,Hall,chall@skibox.net,Burundi,19.4.252.254
183,Angela,Sanders,asanders@eare.edu,Gibraltar,181.253.136.56
184,Roy,Thompson,rthompson@divape.edu,Uzbekistan,102.178.104.210
185,Andrew,Burns,aburns@jayo.org,Denmark,179.2.85.150
186,Clarence,Gibson,cgibson@edgeclub.net,Sao Tome and Principe,9.241.89.31
187,Cynthia,Shaw,cshaw@gabtype.mil,Guatemala,26.225.126.228
188,Dorothy,James,djames@jetwire.mil,Isle of Man,35.139.62.118
189,Phillip,Wagner,pwagner@npath.gov,Åland,66.66.56.106
190,Catherine,Simpson,csimpson@voolia.info,Solomon Islands,243.193.164.76
191,Johnny,Hall,jhall@edgewire.gov,Jordan,146.255.98.16
192,Justin,Jordan,jjordan@riffwire.edu,Equatorial Guinea,23.144.218.87
193,Martha,Fernandez,mfernandez@realcube.info,Paraguay,55.64.14.169
194,Chris,Ruiz,cruiz@pixope.biz,South Africa,8.171.112.194
195,Sandra,Thompson,sthompson@eamia.gov,San Marino,247.160.231.17
196,Frances,Carroll,fcarroll@devcast.gov,Luxembourg,121.218.209.158
197,Kathryn,Sims,ksims@realcube.com,US Minor Outlying Islands,210.101.242.222
198,Judy,Mccoy,jmccoy@lajo.info,Spain,176.110.108.69
199,Jimmy,Johnston,jjohnston@devcast.org,Kyrgyzstan,203.84.93.179
200,Carol,Webb,cwebb@shuffledrive.org,Taiwan,182.233.32.17
201,Anna,Barnes,abarnes@feedspan.name,Timor-Leste,153.46.110.166
202,Arthur,West,awest@meemm.mil,Israel,168.170.117.91
203,Gloria,Wilson,gwilson@yoveo.edu,Nauru,41.34.108.64
204,Raymond,Perry,rperry@gabtune.info,Ascension Island,235.120.54.5
205,Daniel,Hall,dhall@fiveclub.edu,El Salvador,92.133.154.115
206,Heather,Sanders,hsanders@quamba.edu,Namibia,217.131.116.94
207,Helen,Grant,hgrant@eadel.mil,Greenland,161.202.161.218
208,Adam,Hernandez,ahernandez@flashspan.com,Azerbaijan,59.226.131.62
209,Andrew,Gordon,agordon@voomm.com,Saint Pierre and Miquelon,233.29.1.204
210,Theresa,Wallace,twallace@jaloo.edu,Dominican Republic,197.217.3.115
211,Alan,Frazier,afrazier@aimbu.edu,France,162.92.182.15
212,Terry,Reed,treed@skalith.net,Afghanistan,96.164.23.63
213,Sara,Robinson,srobinson@oyope.mil,Qatar,50.31.213.62
214,Terry,Nichols,tnichols@yacero.net,Luxembourg,29.175.32.27
215,Michael,Richards,mrichards@voomm.name,Bangladesh,15.11.182.235
216,Nicole,Carroll,ncarroll@innojam.biz,Syria,107.185.46.164
217,Carlos,Nelson,cnelson@brainsphere.net,Paraguay,59.31.202.210
218,Robert,Palmer,rpalmer@tambee.biz,New Caledonia,95.156.135.160
219,William,Matthews,wmatthews@yoveo.net,Falkland Islands (Malvinas),71.152.9.110
220,Maria,Price,mprice@vinte.mil,Gibraltar,216.48.54.79
221,Sharon,Cook,scook@skajo.gov,Niue,146.110.221.95
222,Ruby,Meyer,rmeyer@fiveclub.mil,Bermuda,157.163.193.58
223,Irene,Clark,iclark@oyoyo.org,Rwanda,170.122.150.153
224,Andrea,Arnold,aarnold@skipstorm.edu,Angola,193.246.125.208
225,Martin,Mccoy,mmccoy@talane.info,Costa Rica,62.138.174.169
226,Christopher,Sims,csims@yodel.edu,Bolivia,175.171.57.105
227,Andrea,Coleman,acoleman@realblab.edu,Algeria,59.50.154.120
228,Katherine,Holmes,kholmes@kimia.name,Kuwait,5.172.181.140
229,Lois,Young,lyoung@npath.com,Lithuania,35.221.145.75
230,Craig,Price,cprice@devcast.net,Saint Pierre and Miquelon,155.106.4.187
231,Janice,Bradley,jbradley@brainbox.name,China,32.148.10.40
232,Carol,Matthews,cmatthews@buzzdog.com,Grenada,114.141.52.119
233,Douglas,Bell,dbell@zooveo.org,Angola,81.99.84.230
234,Carol,Porter,cporter@voolia.com,Singapore,71.103.152.17
235,Martha,Morales,mmorales@janyx.com,Malawi,220.106.165.118
236,Gloria,Spencer,gspencer@fanoodle.biz,Afghanistan,240.8.168.34
237,Brandon,Griffin,bgriffin@jayo.edu,Norway,93.116.103.34
238,Sharon,Ramirez,sramirez@mita.info,Kenya,139.155.37.240
239,Carolyn,Boyd,cboyd@devcast.edu,Solomon Islands,117.153.244.90
240,Eric,Perez,eperez@voonder.info,French Southern Territories,242.121.64.145
241,Edward,Romero,eromero@avaveo.org,Niue,196.53.158.217
242,Lois,Myers,lmyers@realmix.gov,French Guiana,128.236.28.69
243,Craig,Meyer,cmeyer@dynazzy.biz,Åland,56.21.52.73
244,Steve,Hudson,shudson@eimbee.biz,Northern Mariana Islands,217.157.234.119
245,Jonathan,Gonzales,jgonzales@yakijo.org,Samoa,213.73.108.129
246,Andrea,Stephens,astephens@zoomzone.name,Svalbard and Jan Mayen Islands,199.40.181.149
247,Melissa,Morris,mmorris@photospace.biz,Benin,15.154.104.3
248,Andrew,Crawford,acrawford@fanoodle.edu,Marshall Islands,195.183.99.164
249,Janet,White,jwhite@brainverse.info,Philippines,217.194.33.243
250,Nicholas,Nichols,nnichols@janyx.info,Anguilla,155.125.126.245
251,Christopher,Burns,cburns@photofeed.edu,Czech Republic,74.178.31.193
252,Michael,Nichols,mnichols@realbuzz.edu,France,34.130.34.46
253,Kenneth,Tucker,ktucker@fivespan.edu,Saint Martin,137.206.232.17
254,Kathryn,Gomez,kgomez@zooveo.gov,Bolivia,19.153.215.196
255,Gary,Robertson,grobertson@eare.gov,Senegal,66.199.156.90
256,Timothy,Robinson,trobinson@skipfire.com,Guam,99.136.19.28
257,Howard,Daniels,hdaniels@skipfire.edu,Martinique,31.11.37.227
258,Douglas,Russell,drussell@brightdog.org,Fiji,221.65.60.154
259,Brandon,Rice,brice@jetpulse.com,Guyana,212.177.230.176
260,Rachel,Stewart,rstewart@tagtune.name,Nigeria,248.144.13.232
261,Lillian,Stewart,lstewart@brainverse.org,Cape Verde,67.32.78.63
262,Richard,Porter,rporter@divavu.info,Niger,62.57.74.152
263,Linda,Romero,lromero@voonte.gov,Bulgaria,195.187.163.159
264,Frank,Parker,fparker@ainyx.com,Montenegro,171.133.74.128
265,Henry,Rodriguez,hrodriguez@avamba.mil,Wallis and Futuna Islands,138.208.245.152
266,Mary,Roberts,mroberts@dabvine.name,Madagascar,47.207.76.180
267,Todd,Henderson,thenderson@meembee.org,Sao Tome and Principe,51.45.253.188
268,Catherine,White,cwhite@riffpath.gov,Trinidad and Tobago,74.183.20.226
269,Carl,Ferguson,cferguson@twinder.org,Saint Lucia,233.181.8.119
270,Mildred,Flores,mflores@youspan.edu,Reunion,60.181.213.38
271,Martin,Watson,mwatson@myworks.name,Burundi,173.119.27.174
272,Amanda,Cole,acole@centizu.gov,Bulgaria,98.202.185.65
273,James,Daniels,jdaniels@voomm.name,Saint Helena,4.54.189.17
274,Virginia,King,vking@leenti.name,British Virgin Islands,174.142.191.100
275,Timothy,Peters,tpeters@quinu.edu,Martinique,103.162.215.242
276,Diana,Fox,dfox@zoomdog.biz,Martinique,213.249.129.65
277,Brenda,Gilbert,bgilbert@skinix.com,Uzbekistan,177.198.245.154
278,Angela,Ross,aross@wordpedia.mil,Moldova,239.178.173.49
279,Justin,Gardner,jgardner@gabtune.mil,Peru,250.234.218.122
280,Frances,Anderson,fanderson@babbleopia.gov,"Congo, Republic of",76.123.54.201
281,Christine,Mills,cmills@abatz.com,US Minor Outlying Islands,6.92.147.96
282,Louise,Simpson,lsimpson@vipe.mil,Vietnam,115.152.97.161
283,Norma,Hill,nhill@yombu.org,Uganda,180.98.110.101
284,Kevin,Washington,kwashington@jaxspan.name,Aruba,135.220.222.14
285,Denise,Knight,dknight@skyba.org,Anguilla,9.41.107.102
286,Rachel,Greene,rgreene@devify.name,Malta,212.193.121.190
287,Lori,Lopez,llopez@reallinks.gov,Kyrgyzstan,39.147.240.38
288,Nancy,Jordan,njordan@skyndu.name,Spain,123.94.136.234
289,Kelly,Carpenter,kcarpenter@fiveclub.mil,Ireland,66.22.98.179
290,William,Montgomery,wmontgomery@wikizz.info,Saint Helena,17.60.248.246
291,Andrew,Mitchell,amitchell@topicshots.gov,Burundi,228.239.9.252
292,Wanda,Franklin,wfranklin@rhynyx.gov,Anguilla,19.54.149.102
293,Marilyn,Wright,mwright@tekfly.edu,United States of America,192.25.180.234
294,Donald,Grant,dgrant@browseblab.org,Niger,76.3.5.181
295,Bobby,Moreno,bmoreno@rhynoodle.org,Jamaica,232.230.3.93
296,Roy,Howell,rhowell@gabtype.info,Kazakhstan,180.204.173.44
297,Bruce,Phillips,bphillips@rhycero.mil,Slovakia,183.203.93.48
298,Peter,Gray,pgray@riffpedia.biz,Serbia,56.145.3.117
299,Louis,Ortiz,lortiz@realmix.edu,Åland,156.107.199.215
300,Thomas,Gardner,tgardner@riffpedia.org,Syria,207.217.137.190
301,Fred,Moore,fmoore@dynazzy.org,"Congo, Republic of",198.135.54.162
302,Kathryn,Long,klong@feedfish.net,Palau,170.70.247.186
303,Samuel,Moreno,smoreno@trilith.com,Zambia,106.184.131.107
304,Adam,Gutierrez,agutierrez@ntags.info,Saint Helena,89.75.191.161
305,Steve,White,swhite@shuffletag.org,British Virgin Islands,202.180.49.152
306,Patrick,Armstrong,parmstrong@zoombox.gov,Botswana,184.41.50.167
307,Patrick,Stanley,pstanley@browsetype.info,Netherlands Antilles,114.48.127.61
308,Shawn,Bryant,sbryant@topicstorm.com,Malaysia,96.137.14.147
309,Katherine,Hayes,khayes@shuffletag.edu,Tunisia,100.253.11.213
310,Johnny,Mason,jmason@fliptune.info,Angola,42.215.28.146
311,Christina,Rose,crose@ailane.edu,Belarus,50.28.99.133
312,Carol,Richards,crichards@quinu.biz,Bermuda,254.194.85.188
313,Mark,Perry,mperry@edgetag.com,Denmark,11.17.103.203
314,Joe,Nguyen,jnguyen@voomm.gov,Ascension Island,85.140.53.45
315,Philip,Butler,pbutler@mita.name,Belarus,128.84.226.73
316,Ernest,Franklin,efranklin@tazz.biz,Grenada,158.149.27.84
317,Paul,Stephens,pstephens@vinder.net,India,230.241.50.60
318,Jonathan,Jordan,jjordan@livefish.gov,French Polynesia,218.52.104.141
319,Edward,Stanley,estanley@jumpxs.info,Cameroon,21.171.44.108
320,Michael,Little,mlittle@wikido.gov,Suriname,121.9.149.156
321,Andrea,Young,ayoung@oodoo.net,Guadeloupe,48.128.17.165
322,Joshua,Wright,jwright@digitube.org,Venezuela,148.201.158.30
323,Diane,Foster,dfoster@ainyx.name,Kenya,47.90.173.111
324,Lois,Bradley,lbradley@quinu.com,Micronesia,81.30.75.104
325,Victor,Franklin,vfranklin@mynte.biz,French Southern Territories,171.50.50.122
326,Michelle,Wheeler,mwheeler@cogibox.gov,Puerto Rico,27.250.74.2
327,Raymond,Taylor,rtaylor@lazz.info,Fiji,173.61.100.128
328,Wayne,West,wwest@jumpxs.edu,Dominica,12.208.249.46
329,Pamela,Fisher,pfisher@thoughtbridge.net,Cameroon,212.65.39.186
330,Patricia,Sullivan,psullivan@tambee.org,Bhutan,218.88.196.65
331,Theresa,Diaz,tdiaz@katz.biz,Colombia,253.172.207.67
332,Judy,Ortiz,jortiz@topicware.gov,Iran,253.37.148.92
333,Adam,Richards,arichards@livefish.mil,Equatorial Guinea,164.115.136.130
334,Mark,Garrett,mgarrett@skilith.name,Burundi,63.169.17.163
335,Arthur,Russell,arussell@quimba.name,Cuba,110.176.251.149
336,Stephen,Lee,slee@babbleset.info,Mauritius,125.97.50.136
337,Jacqueline,Holmes,jholmes@innotype.gov,Kazakhstan,150.106.108.18
338,Steve,Wood,swood@oyondu.info,Ascension Island,27.190.159.207
339,Anne,Moore,amoore@topicblab.biz,Peru,131.82.205.88
340,Donald,Wilson,dwilson@linkbuzz.mil,Cape Verde,85.114.54.27
341,Douglas,Gray,dgray@rhyloo.biz,Italy,36.105.215.139
342,Annie,Medina,amedina@jabberstorm.org,Pitcairn Island,43.29.141.141
343,Rachel,Campbell,rcampbell@devify.org,Dominican Republic,237.225.170.100
344,John,Robertson,jrobertson@babblestorm.mil,Chile,167.249.229.193
345,Angela,Campbell,acampbell@jaxbean.com,Malta,149.197.180.88
346,Jane,Little,jlittle@janyx.name,Guinea-Bissau,68.102.152.73
347,Mildred,Lane,mlane@gigaclub.edu,Saint Martin,238.80.21.105
348,Diana,Reynolds,dreynolds@rhynoodle.gov,Bhutan,239.87.94.163
349,Patrick,Perez,pperez@skyble.edu,United Kingdom,156.193.207.61
350,Melissa,Rodriguez,mrodriguez@browsedrive.net,Senegal,180.150.153.66
351,Craig,Gutierrez,cgutierrez@jayo.name,Spain,124.69.59.115
352,Nicholas,Carroll,ncarroll@reallinks.name,Aruba,66.228.23.108
353,Justin,Reynolds,jreynolds@feedmix.biz,Greenland,132.1.101.3
354,Jesse,Gonzales,jgonzales@jaxbean.net,United Kingdom,194.151.96.35
355,Karen,Peters,kpeters@innojam.gov,Saint Pierre and Miquelon,1.38.16.240
356,Jason,Cooper,jcooper@realbridge.mil,Greenland,239.227.39.126
357,Wayne,Hamilton,whamilton@nlounge.name,Montenegro,40.25.149.98
358,Elizabeth,Lewis,elewis@yakidoo.net,Ireland,213.221.59.250
359,Jerry,Kennedy,jkennedy@eayo.net,Falkland Islands (Malvinas),118.54.157.64
360,Jesse,Richards,jrichards@browseblab.edu,Bosnia and Herzegovina,225.230.27.19
361,Brandon,Chavez,bchavez@topicblab.gov,Gambia,171.41.124.33
362,Wanda,Gonzales,wgonzales@mymm.com,Lebanon,161.47.191.101
363,Johnny,Willis,jwillis@rhybox.org,Croatia,90.192.34.221
364,Jason,Crawford,jcrawford@tekfly.net,Jersey,141.126.19.131
365,Adam,Ward,award@zoovu.com,Burundi,48.107.178.49
366,Kimberly,Woods,kwoods@podcat.gov,Mozambique,158.243.90.96
367,Brandon,Andrews,bandrews@voonix.gov,Austria,244.181.114.185
368,Paul,Martinez,pmartinez@leenti.edu,Kuwait,183.29.211.132
369,Lillian,Montgomery,lmontgomery@edgeclub.mil,Luxembourg,224.47.234.126
370,Christine,Wright,cwright@babblestorm.edu,Germany,36.250.231.109
371,Eric,Long,elong@katz.net,Bahrain,52.202.144.72
372,Martha,Burton,mburton@minyx.edu,Papua New Guinea,170.157.74.32
373,Raymond,Sanders,rsanders@feedfire.gov,Nepal,168.161.144.182
374,Walter,Morris,wmorris@abata.name,Timor-Leste,31.66.237.94
375,Alan,Young,ayoung@yambee.edu,Indonesia,2.42.65.60
376,Barbara,Medina,bmedina@jaxspan.info,Christmas Island,200.255.245.191
377,Carlos,Harrison,charrison@zoombox.biz,Senegal,106.77.77.23
378,Diana,Schmidt,dschmidt@dabshots.info,Somalia,106.118.232.228
379,Cynthia,Cruz,ccruz@dynabox.gov,British Indian Ocean Territory,189.76.137.95
380,Gerald,Mccoy,gmccoy@lazzy.edu,American Samoa,89.171.228.240
381,Charles,Cruz,ccruz@meembee.gov,Nauru,95.105.101.25
382,Martin,Spencer,mspencer@wikizz.name,Angola,88.224.32.17
383,Pamela,Bailey,pbailey@leexo.biz,South Africa,57.72.207.135
384,Kathryn,Price,kprice@pixonyx.org,Chad,194.136.69.17
385,Fred,Ford,fford@skiptube.mil,"Korea, North",193.25.46.145
386,Joyce,Little,jlittle@twitterbeat.biz,Ireland,39.209.106.46
387,Benjamin,Lawrence,blawrence@zooxo.com,Bangladesh,57.45.235.100
388,Kenneth,Schmidt,kschmidt@yakidoo.org,Mozambique,231.245.114.23
389,Jesse,Allen,jallen@skyndu.net,Burundi,199.249.125.13
390,Victor,Freeman,vfreeman@zoomdog.com,United Arab Emirates,100.143.238.20
391,Michelle,Dunn,mdunn@twimbo.edu,Guadeloupe,55.121.142.5
392,Wanda,Carroll,wcarroll@rhybox.edu,Syria,115.236.125.43
393,Michelle,Cox,mcox@agimba.name,Chile,63.29.143.42
394,Harold,Rivera,hrivera@voolia.net,Botswana,15.78.44.146
395,Fred,Kelley,fkelley@jayo.mil,Niger,213.75.130.50
396,Jeremy,Reed,jreed@skajo.gov,Ecuador,255.108.11.71
397,Teresa,Stone,tstone@oodoo.info,Estonia,37.254.70.225
398,Mark,Bryant,mbryant@tagchat.net,Bermuda,71.125.238.197
399,Louis,Moore,lmoore@dabtype.mil,US Minor Outlying Islands,45.95.88.77
400,Jimmy,Rose,jrose@skynoodle.com,"Korea, North",248.88.35.224
401,Mildred,Fowler,mfowler@bluezoom.org,Kuwait,236.230.82.37
402,Carlos,Armstrong,carmstrong@realcube.net,Equatorial Guinea,240.145.91.118
403,Alice,Scott,ascott@gabvine.info,Montenegro,114.212.169.245
404,John,Stewart,jstewart@meevee.info,Sierra Leone,74.108.255.212
405,Ann,Hunter,ahunter@voolia.com,French Southern Territories,230.24.170.223
406,Wayne,Wheeler,wwheeler@pixonyx.net,Burundi,118.142.90.144
407,Jack,Dean,jdean@dabfeed.net,Seychelles,150.196.228.160
408,Carol,Garcia,cgarcia@avamba.net,Guyana,92.232.251.14
409,Nicholas,Burns,nburns@meevee.com,Armenia,58.45.91.141
410,Kevin,Gonzales,kgonzales@feedbug.net,Niger,253.147.126.94
411,Carol,Armstrong,carmstrong@twitterbeat.biz,Argentina,86.103.192.155
412,Teresa,Harvey,tharvey@eabox.biz,Falkland Islands (Malvinas),37.237.92.35
413,Arthur,Stewart,astewart@voomm.net,Kenya,134.164.44.8
414,Ryan,Watson,rwatson@feedbug.mil,Cape Verde,185.85.188.127
415,Paula,Walker,pwalker@thoughtbridge.mil,Mauritius,195.81.157.172
416,Carl,Lawrence,clawrence@twitterworks.name,Cote d'Ivoire,146.129.22.126
417,Harold,Johnson,hjohnson@rooxo.edu,Philippines,29.46.237.163
418,Sharon,Powell,spowell@rhynoodle.com,Ireland,110.108.176.72
419,Victor,Fisher,vfisher@bubblemix.org,Taiwan,36.23.174.160
420,Diane,Sims,dsims@eayo.com,Saint Helena,166.155.123.164
421,Diane,Ray,dray@youspan.mil,Fiji,34.114.68.127
422,Jeffrey,Austin,jaustin@fliptune.biz,Madagascar,219.176.192.230
423,Norma,Peters,npeters@dynabox.gov,Bermuda,201.0.99.71
424,Adam,Nichols,anichols@npath.name,Yemen,239.61.62.52
425,Alan,Harvey,aharvey@blogtags.com,Saudia Arabia,50.38.249.223
426,Karen,Kim,kkim@yodel.biz,Western Sahara,67.22.234.162
427,Larry,Bryant,lbryant@skalith.biz,Brazil,49.205.168.212
428,Andrea,Mills,amills@twitterbridge.edu,Peru,74.171.50.150
429,Linda,Alvarez,lalvarez@bubblemix.org,Antigua and Barbuda,151.54.159.21
430,Bonnie,Rivera,brivera@twinte.com,South Georgia and the South Sandwich Islands,175.165.184.43
431,Anthony,Bell,abell@oyope.org,Singapore,58.147.87.6
432,David,Spencer,dspencer@avamm.biz,Central African Republic,0.102.238.141
433,James,Henry,jhenry@quire.com,Bouvet Island,198.44.102.228
434,Paul,Garrett,pgarrett@zoomlounge.info,Heard and McDonald Islands,219.144.85.192
435,Theresa,Gilbert,tgilbert@jabberbean.biz,Finland,231.227.102.158
436,Elizabeth,Hill,ehill@quire.edu,Norway,140.15.102.240
437,Aaron,Phillips,aphillips@brainsphere.org,Saint Lucia,196.87.221.210
438,Michael,Simmons,msimmons@photobug.gov,US Minor Outlying Islands,172.74.222.45
439,Shirley,Payne,spayne@eire.biz,Ghana,253.149.197.89
440,William,Thomas,wthomas@oyonder.net,Trinidad and Tobago,246.1.113.181
441,Ernest,Mccoy,emccoy@browseblab.mil,Austria,3.90.88.41
442,Raymond,Cook,rcook@muxo.org,US Minor Outlying Islands,131.170.204.56
443,Pamela,Crawford,pcrawford@kaymbo.mil,Christmas Island,225.205.119.87
444,Amy,Edwards,aedwards@oloo.mil,Papua New Guinea,124.230.219.79
445,George,Fields,gfields@topiclounge.info,Mongolia,248.214.165.136
446,Judy,Cook,jcook@yakitri.net,Nigeria,243.180.183.156
447,Evelyn,Watson,ewatson@thoughtstorm.name,Ascension Island,101.132.8.74
448,Cynthia,Carpenter,ccarpenter@oba.com,Niue,57.6.26.150
449,Carol,Day,cday@yamia.name,Morocco,17.127.65.95
450,Howard,Lawrence,hlawrence@zoombox.net,China,172.183.79.65
451,Carol,Edwards,cedwards@dynabox.mil,Botswana,229.57.7.74
452,Peter,Hunter,phunter@camido.biz,Croatia,84.179.10.94
453,Anthony,Rogers,arogers@agivu.mil,Taiwan,30.225.209.116
454,Shawn,Fisher,sfisher@yombu.gov,Taiwan,88.147.189.95
455,Bonnie,Cruz,bcruz@trudeo.mil,Poland,240.151.255.15
456,Douglas,Day,dday@skidoo.gov,Saint Barthelemy,197.140.72.221
457,Daniel,Peters,dpeters@plambee.com,Tanzania,196.219.79.77
458,Diana,Banks,dbanks@quimm.mil,India,75.133.79.177
459,Margaret,Sullivan,msullivan@twitterworks.biz,Macedonia,29.99.207.125
460,Janet,Brooks,jbrooks@dynazzy.info,Guadeloupe,210.108.140.39
461,Cheryl,Green,cgreen@yodo.biz,Vietnam,135.31.211.83
462,Evelyn,Duncan,eduncan@gabtune.org,Honduras,181.209.212.162
463,Shirley,Myers,smyers@skyndu.org,Mongolia,33.46.218.8
464,Theresa,Castillo,tcastillo@flashpoint.edu,Gabon,238.133.122.160
465,Keith,Flores,kflores@trudoo.info,Tuvalu,40.119.203.146
466,Joseph,Ward,jward@edgetag.gov,Christmas Island,195.218.148.45
467,Ryan,Edwards,redwards@leenti.mil,Belgium,247.145.102.211
468,Sara,Perry,sperry@flashset.name,Russia,75.17.36.213
469,Wanda,Lane,wlane@janyx.net,Eritrea,170.196.24.33
470,Kenneth,Martin,kmartin@youspan.edu,Nauru,24.170.60.102
471,Donna,Warren,dwarren@browseblab.name,Zambia,132.121.0.252
472,Scott,Sullivan,ssullivan@dabtype.name,Kuwait,138.217.120.47
473,Russell,Butler,rbutler@dynabox.edu,Dominican Republic,147.57.92.26
474,Laura,Ryan,lryan@dabfeed.gov,Nepal,130.36.216.186
475,Gloria,Morrison,gmorrison@yotz.gov,Thailand,49.226.251.86
476,Kathy,Weaver,kweaver@tagtune.org,Guatemala,209.30.15.195
477,Louis,Reyes,lreyes@photojam.name,Mali,15.206.42.255
478,Angela,Baker,abaker@flashset.name,Saint Kitts and Nevis,44.21.126.240
479,Virginia,Reid,vreid@gabcube.com,Gambia,28.29.162.246
480,Shirley,Warren,swarren@yombu.mil,Nigeria,31.56.156.0
481,Karen,Simmons,ksimmons@photobug.biz,Namibia,229.62.139.93
482,Linda,Ford,lford@ozu.edu,Burundi,49.104.145.98
483,Carlos,Hunter,chunter@camido.info,Hong Kong,149.164.38.73
484,Bobby,Torres,btorres@wikibox.edu,United Arab Emirates,210.135.120.243
485,Douglas,Dunn,ddunn@trilia.com,French Polynesia,248.177.203.255
486,Evelyn,Gray,egray@yacero.biz,Madagascar,26.233.193.90
487,Melissa,Little,mlittle@voolia.info,Uruguay,240.227.225.100
488,Amanda,Ray,aray@yodoo.biz,Taiwan,204.197.87.160
489,Shawn,Jenkins,sjenkins@kazu.name,Equatorial Guinea,248.213.99.41
490,Kevin,Hall,khall@voonyx.name,Nauru,128.40.193.164
491,Johnny,Hawkins,jhawkins@wikizz.org,Swaziland,48.204.234.23
492,Nicholas,Torres,ntorres@mymm.info,Turkey,102.32.230.232
493,Catherine,Romero,cromero@photobug.edu,Comoros,244.47.159.51
494,Ernest,Hudson,ehudson@wikizz.gov,Falkland Islands (Malvinas),110.152.57.219
495,Judy,Burton,jburton@realbridge.gov,Guatemala,148.75.186.201
496,Virginia,Cooper,vcooper@mynte.info,Philippines,56.184.208.225
497,Russell,Jacobs,rjacobs@zooxo.edu,Argentina,32.95.128.60
498,Fred,Matthews,fmatthews@browsedrive.mil,Equatorial Guinea,235.104.56.165
499,Mark,Vasquez,mvasquez@tagfeed.gov,Central African Republic,97.160.78.249
500,Annie,Hart,ahart@fatz.gov,Laos,196.246.67.249
501,Frances,Bishop,fbishop@leexo.org,Portugal,193.73.53.113
502,Phillip,Duncan,pduncan@snaptags.name,Western Sahara,212.196.178.176
503,Alice,Chavez,achavez@rhycero.edu,Yugoslavia,213.206.37.160
504,Louis,Griffin,lgriffin@photobug.org,Saudia Arabia,188.107.177.74
505,Diane,Fox,dfox@edgeclub.edu,Gambia,192.116.207.50
506,Kenneth,Fox,kfox@oodoo.gov,Isle of Man,119.109.163.106
507,Howard,Hayes,hhayes@leenti.net,British Indian Ocean Territory,139.186.56.30
508,Henry,Cooper,hcooper@ntags.net,Georgia,226.140.87.218
509,Margaret,Dean,mdean@avamm.biz,Cape Verde,127.86.94.11
510,Craig,Hill,chill@skajo.org,Benin,32.245.106.86
511,Cheryl,Reid,creid@devpoint.org,Czech Republic,253.42.213.124
512,Cynthia,Bradley,cbradley@flashspan.com,Malaysia,249.33.68.218
513,Jean,Graham,jgraham@mynte.gov,Cocos (Keeling) Island,5.26.71.159
514,Andrea,Phillips,aphillips@blognation.org,Saint Kitts and Nevis,75.237.93.213
515,Evelyn,Howard,ehoward@demivee.net,Burkina Faso,241.41.41.123
516,Howard,Arnold,harnold@divape.name,Thailand,188.228.92.7
517,Todd,Watkins,twatkins@browsezoom.name,United States Virgin Islands,232.77.182.140
518,Timothy,Welch,twelch@jabbersphere.net,French Southern Territories,57.57.10.120
519,Phillip,Anderson,panderson@demizz.com,Wallis and Futuna Islands,213.197.64.92
520,Samuel,Rodriguez,srodriguez@katz.net,Timor-Leste,223.23.57.238
521,Jennifer,Johnston,jjohnston@einti.info,Guinea-Bissau,191.223.196.214
522,Rachel,King,rking@dynabox.edu,Tuvalu,59.16.218.214
523,Bruce,Lawson,blawson@topiclounge.org,Faroe Islands,46.13.207.227
524,Anthony,Fuller,afuller@skajo.net,Puerto Rico,94.131.2.62
525,Shirley,Powell,spowell@layo.org,New Caledonia,142.173.147.222
526,Gloria,Simmons,gsimmons@blogtags.com,France,160.189.141.107
527,Aaron,Jordan,ajordan@vinte.gov,Guernsey,237.246.100.229
528,Joe,Elliott,jelliott@twinder.com,"Congo, Democratic Republic of",158.78.159.127
529,Melissa,Taylor,mtaylor@brightdog.mil,Cyprus,81.135.103.83
530,Jason,Gonzales,jgonzales@digitube.biz,Libya,122.223.191.36
531,Amanda,Snyder,asnyder@thoughtstorm.org,South Georgia and the South Sandwich Islands,250.96.59.20
532,Andrea,Chapman,achapman@vimbo.mil,Mayotte,80.26.168.83
533,Jane,Marshall,jmarshall@topiczoom.net,Saint Pierre and Miquelon,21.12.190.166
534,Willie,Thomas,wthomas@gevee.info,Tanzania,183.216.193.118
535,Heather,Freeman,hfreeman@myworks.name,Hungary,243.109.169.34
536,Donna,Bryant,dbryant@mydo.gov,Greenland,161.200.44.218
537,John,Spencer,jspencer@brainfire.info,"Congo, Republic of",177.229.213.113
538,Lillian,Vasquez,lvasquez@oodoo.info,Poland,112.215.200.218
539,Jose,Graham,jgraham@meevee.edu,Turkey,60.182.66.217
540,Cheryl,Hill,chill@kayveo.gov,Nauru,200.204.242.152
541,David,Castillo,dcastillo@aivee.biz,Peru,128.13.54.29
542,Jacqueline,Garza,jgarza@flashpoint.com,Cameroon,41.41.47.137
543,George,Price,gprice@dabtype.net,Cameroon,168.199.75.236
544,Alan,Pierce,apierce@voolith.net,Israel,169.59.132.13
545,Johnny,Simpson,jsimpson@buzzshare.org,Mexico,165.38.208.166
546,Kimberly,Cunningham,kcunningham@layo.org,Cook Islands,47.111.134.4
547,Katherine,Chavez,kchavez@yambee.biz,Moldova,71.17.55.74
548,Jane,Davis,jdavis@rhynoodle.biz,New Caledonia,211.20.180.199
549,Nicholas,Grant,ngrant@midel.com,Turkey,61.231.237.167
550,Theresa,Hamilton,thamilton@layo.org,Ascension Island,115.50.147.210
551,Robert,Cruz,rcruz@abata.net,Kiribati,58.53.49.176
552,Jack,Lopez,jlopez@kazu.biz,French Polynesia,147.232.62.59
553,Jonathan,Alvarez,jalvarez@skinix.net,Liechtenstein,233.101.245.32
554,Roger,Cunningham,rcunningham@trunyx.name,Saudia Arabia,37.23.24.160
555,Billy,Harrison,bharrison@bubblemix.name,Romania,218.43.105.86
556,Catherine,Garrett,cgarrett@pixonyx.mil,Cote d'Ivoire,133.169.99.169
557,Michelle,Young,myoung@lajo.com,Belarus,128.248.13.90
558,Gregory,Meyer,gmeyer@skyble.edu,Reunion,214.53.184.57
559,Roger,Frazier,rfrazier@avamm.biz,Denmark,178.241.172.226
560,Joe,Edwards,jedwards@yacero.name,Canada,153.207.221.105
561,Denise,Harris,dharris@viva.org,Moldova,9.1.9.29
562,Jane,Carroll,jcarroll@zoovu.net,Equatorial Guinea,222.176.240.106
563,Henry,Bailey,hbailey@eadel.org,Japan,191.221.58.190
564,Sarah,Reid,sreid@photojam.mil,Saint Barthelemy,39.141.115.42
565,Brandon,Price,bprice@edgewire.edu,Zambia,5.23.65.156
566,Michelle,Johnston,mjohnston@blogspan.edu,Western Sahara,227.210.90.255
567,Christina,Richards,crichards@skimia.info,South Africa,207.18.62.239
568,Debra,Bennett,dbennett@blogspan.biz,Afghanistan,2.84.167.189
569,Ann,Martin,amartin@tazzy.org,Israel,167.223.213.203
570,Heather,Roberts,hroberts@jaxspan.name,Greenland,10.156.222.89
571,Shawn,Ortiz,sortiz@chatterpoint.info,Cocos (Keeling) Island,12.160.16.25
572,Tina,Stewart,tstewart@gabtype.name,Yemen,65.170.90.90
573,Victor,Simpson,vsimpson@zooveo.com,French Polynesia,96.156.9.228
574,Elizabeth,Green,egreen@yata.name,Mauritania,48.29.76.155
575,Marie,Hayes,mhayes@meejo.net,Thailand,57.0.229.64
576,Christine,Fernandez,cfernandez@feednation.com,Poland,214.150.129.191
577,Shawn,Carroll,scarroll@devcast.info,Saudia Arabia,204.111.35.64
578,Cheryl,Carpenter,ccarpenter@thoughtstorm.edu,Gambia,237.41.217.160
579,Willie,Young,wyoung@oyoloo.edu,South Georgia and the South Sandwich Islands,178.25.34.185
580,Laura,Hart,lhart@jaxbean.name,Palau,87.178.30.16
581,Emily,Rice,erice@bluezoom.gov,Zambia,201.29.160.46
582,Donna,Bennett,dbennett@eabox.org,Jamaica,133.214.25.108
583,Victor,Hamilton,vhamilton@rhybox.gov,Japan,156.187.19.88
584,Kathy,Lynch,klynch@quimm.com,South Africa,101.148.229.29
585,Louis,Taylor,ltaylor@thoughtblab.org,Syria,80.205.13.180
586,Stephanie,Rodriguez,srodriguez@quinu.edu,Benin,236.21.67.105
587,Stephanie,Ferguson,sferguson@zoombeat.com,Western Sahara,251.125.84.232
588,John,Taylor,jtaylor@trupe.org,Marshall Islands,119.201.240.15
589,Jane,Owens,jowens@topicblab.com,Norfolk Island,111.213.136.4
590,Carol,Hawkins,chawkins@wikibox.net,Benin,103.226.61.159
591,Michael,Olson,molson@feedbug.edu,Equatorial Guinea,174.119.3.159
592,Joseph,Brown,jbrown@voonix.mil,South Georgia and the South Sandwich Islands,187.255.62.98
593,Phillip,Castillo,pcastillo@yakitri.com,China,248.246.26.246
594,Earl,Lane,elane@dynabox.com,Canada,245.42.112.219
595,Joseph,Watkins,jwatkins@yakitri.com,Iraq,81.6.145.147
596,Lori,Gonzales,lgonzales@oyoloo.com,Jordan,248.16.194.224
597,Robin,Day,rday@skyvu.biz,Singapore,108.131.73.146
598,Tina,Price,tprice@oyope.org,Eritrea,43.31.185.24
599,Roger,Thompson,rthompson@wordpedia.biz,Senegal,12.237.5.172
600,Ruth,Banks,rbanks@buzzshare.org,Benin,22.10.130.190
601,Elizabeth,Weaver,eweaver@ailane.name,Bahamas,64.44.109.163
602,Terry,Knight,tknight@fivespan.info,Namibia,72.252.245.70
603,Matthew,Hill,mhill@plambee.name,Liberia,90.105.134.193
604,Clarence,Moreno,cmoreno@meetz.com,Iceland,156.148.194.116
605,Patrick,Little,plittle@eazzy.info,Equatorial Guinea,8.0.27.47
606,William,Adams,wadams@kwideo.name,"Palestinian Territory, Occupied",47.214.149.77
607,Alice,Elliott,aelliott@youfeed.edu,Ecuador,62.120.113.208
608,Walter,Cruz,wcruz@realbridge.biz,Afghanistan,104.242.223.73
609,Nancy,Woods,nwoods@yadel.biz,British Indian Ocean Territory,54.57.232.106
610,Roger,Romero,rromero@flashspan.mil,Comoros,145.115.202.15
611,Raymond,Butler,rbutler@oyoba.net,Anguilla,98.65.20.49
612,Jacqueline,Ford,jford@avaveo.mil,Solomon Islands,131.26.12.243
613,Norma,Bishop,nbishop@photospace.com,Nicaragua,106.23.56.184
614,David,Gutierrez,dgutierrez@talane.name,Gabon,26.78.203.213
615,Robin,Kim,rkim@roomm.net,Turkey,44.113.78.193
616,Diana,Watkins,dwatkins@voonder.name,"Korea, South",96.181.111.180
617,Pamela,Gray,pgray@skynoodle.net,Italy,2.16.165.64
618,Craig,Fisher,cfisher@browsebug.biz,Yugoslavia,235.74.222.89
619,Roy,Bailey,rbailey@yakijo.info,Haiti,42.84.93.249
620,Nicole,Kelley,nkelley@avavee.com,Mali,239.195.24.7
621,Sean,Ferguson,sferguson@mybuzz.net,Senegal,71.131.21.143
622,Deborah,Ford,dford@oyoloo.net,Myanmar,225.0.6.29
623,Carol,King,cking@katz.name,Netherlands,99.124.118.43
624,Deborah,Freeman,dfreeman@realblab.info,Uruguay,3.222.22.156
625,Christina,Hanson,chanson@skyble.com,Ethiopia,24.56.247.150
626,Todd,Bowman,tbowman@jumpxs.net,Armenia,223.151.234.122
627,Theresa,Hill,thill@dynabox.info,Jordan,163.113.14.143
628,Steve,Sanchez,ssanchez@dynazzy.net,Botswana,4.6.229.223
629,Lois,Berry,lberry@buzzdog.gov,Israel,57.81.25.216
630,Wanda,Dunn,wdunn@centidel.gov,Iraq,254.46.19.146
631,Ann,Simmons,asimmons@plajo.org,Luxembourg,143.163.72.222
632,Mary,Stone,mstone@photospace.info,Paraguay,210.135.38.26
633,Antonio,Reynolds,areynolds@dynabox.com,Italy,207.146.250.131
634,Jesse,Sanders,jsanders@yacero.net,Algeria,106.120.80.42
635,David,Nelson,dnelson@jetpulse.edu,Montenegro,45.134.11.190
636,Wanda,Scott,wscott@zooveo.name,Belgium,29.183.46.118
637,Mary,Wheeler,mwheeler@abata.mil,Haiti,235.150.38.190
638,Eric,Morales,emorales@rhynyx.name,Vanuatu,172.182.228.169
639,Victor,Lee,vlee@mydeo.org,Belgium,219.125.225.188
640,Robert,Bell,rbell@divape.mil,Ascension Island,172.155.192.159
641,Thomas,Gonzales,tgonzales@skalith.name,Thailand,166.27.40.58
642,Willie,Mccoy,wmccoy@miboo.mil,Norway,171.90.165.198
643,Larry,Ryan,lryan@feedbug.gov,Ecuador,164.106.65.231
644,Judith,Robinson,jrobinson@skyble.gov,Dominican Republic,48.163.118.119
645,Cheryl,Willis,cwillis@voonix.biz,Macau,37.210.125.51
646,Philip,Watson,pwatson@realcube.name,Barbados,96.80.43.242
647,Joshua,Campbell,jcampbell@photobug.gov,Czech Republic,208.86.155.50
648,Anna,Morgan,amorgan@shufflester.name,Niger,202.83.103.170
649,Janice,Ramos,jramos@eadel.com,Ukraine,65.255.140.31
650,Carl,Austin,caustin@devify.org,Netherlands,53.235.83.154
651,Ashley,Wilson,awilson@wordtune.name,Saint Lucia,184.9.195.111
652,Helen,Burns,hburns@youspan.gov,Tanzania,197.188.0.68
653,Ronald,Williamson,rwilliamson@skiba.biz,Georgia,168.179.137.247
654,Daniel,Harvey,dharvey@chatterpoint.info,Panama,184.188.128.32
655,Sharon,Weaver,sweaver@centidel.info,Lebanon,231.207.8.139
656,Benjamin,Fowler,bfowler@tagpad.org,Niue,144.234.175.22
657,Robin,Sullivan,rsullivan@photobug.gov,Ethiopia,223.93.137.224
658,John,Medina,jmedina@jamia.mil,United Kingdom,75.212.186.196
659,Thomas,Wallace,twallace@voonte.net,Lebanon,215.97.130.183
660,William,White,wwhite@babbleopia.edu,Reunion,58.17.159.184
661,Norma,Rice,nrice@quinu.edu,Togo,190.43.19.0
662,Earl,Campbell,ecampbell@blogtag.mil,Russia,49.101.240.90
663,Billy,Frazier,bfrazier@gabspot.edu,Cape Verde,32.228.175.242
664,Jacqueline,Wood,jwood@browsecat.com,El Salvador,221.175.114.176
665,Kathleen,Cruz,kcruz@feedfire.net,Angola,114.224.17.87
666,Shawn,Watkins,swatkins@thoughtbridge.name,Indonesia,34.27.5.241
667,Heather,Baker,hbaker@divape.mil,Portugal,91.144.242.94
668,Juan,Cook,jcook@lajo.biz,Kuwait,126.177.233.89
669,Nicole,Lopez,nlopez@photospace.biz,Angola,198.122.125.155
670,Jessica,Bennett,jbennett@twitternation.edu,Switzerland,157.94.116.60
671,Tammy,Larson,tlarson@tavu.info,French Guiana,106.144.10.53
672,Sean,Franklin,sfranklin@skiba.org,Kiribati,37.188.19.236
673,Carlos,Hall,chall@quimm.gov,Saint Pierre and Miquelon,82.46.141.140
674,Joshua,Nichols,jnichols@zoombox.biz,Mali,11.255.110.188
675,Donna,Reyes,dreyes@ntag.info,Portugal,238.69.103.140
676,Howard,Fox,hfox@mudo.info,Chad,182.116.46.177
677,Tina,Ford,tford@feedfire.org,New Caledonia,178.255.35.110
678,Daniel,Hansen,dhansen@yakidoo.com,Montenegro,179.3.57.244
679,Russell,Williamson,rwilliamson@avavee.net,Jamaica,161.26.222.178
680,Brenda,Harris,bharris@gigabox.mil,Tonga,58.92.56.120
681,Eugene,Gutierrez,egutierrez@oyoloo.gov,Puerto Rico,198.72.200.48
682,Sara,Brown,sbrown@livez.info,New Zealand,17.70.246.187
683,Billy,Richards,brichards@roomm.biz,Angola,245.54.71.25
684,Linda,Cunningham,lcunningham@twitterbeat.biz,Malaysia,105.228.176.131
685,Sarah,Johnston,sjohnston@trudeo.info,Kuwait,50.162.195.250
686,Sarah,Armstrong,sarmstrong@kwideo.mil,Maldives,168.102.179.7
687,Albert,Watkins,awatkins@trudeo.net,Saint Barthelemy,19.247.123.108
688,Christina,Sullivan,csullivan@katz.info,South Georgia and the South Sandwich Islands,203.88.87.49
689,Nicole,Brooks,nbrooks@quimba.mil,Bahrain,111.38.75.7
690,Joyce,Hill,jhill@meeveo.mil,China,37.106.152.162
691,Sara,Larson,slarson@viva.info,Guinea,247.235.166.56
692,Samuel,Hunter,shunter@rhybox.info,Mexico,228.55.232.125
693,Elizabeth,Martin,emartin@mynte.mil,Nauru,156.82.81.118
694,Gregory,Morales,gmorales@pixoboo.info,Saint Vincent and the Grenadines,98.81.46.217
695,Samuel,Woods,swoods@lazz.name,Cuba,168.100.0.90
696,Jean,Jones,jjones@oloo.info,Haiti,193.49.36.236
697,Thomas,Gray,tgray@eimbee.mil,Denmark,239.234.48.103
698,Stephen,Wheeler,swheeler@vitz.mil,Angola,200.187.53.196
699,Nancy,Edwards,nedwards@devcast.info,United Arab Emirates,46.248.165.164
700,Ann,Hawkins,ahawkins@dynazzy.name,Austria,210.45.122.31
701,Victor,Hamilton,vhamilton@mycat.biz,Ascension Island,73.90.114.39
702,James,Robertson,jrobertson@livepath.mil,Togo,109.36.92.241
703,Irene,Riley,iriley@gabtune.edu,Cayman Islands,8.255.198.155
704,Jean,Smith,jsmith@twitterlist.gov,Niue,230.178.132.44
705,Diane,Carter,dcarter@skivee.edu,Israel,219.3.227.248
706,Nicholas,Hart,nhart@eimbee.edu,"Congo, Democratic Republic of",8.127.9.210
707,Douglas,Gibson,dgibson@youspan.info,Anguilla,78.251.161.209
708,Jeffrey,Ryan,jryan@yacero.net,France,193.53.97.223
709,Dennis,Frazier,dfrazier@teklist.org,Iraq,31.252.98.171
710,Jose,Bishop,jbishop@topiczoom.edu,Belgium,104.23.65.180
711,Patrick,Phillips,pphillips@quatz.com,Comoros,231.249.161.133
712,Mildred,Green,mgreen@tagchat.mil,Nigeria,38.172.182.105
713,Larry,Walker,lwalker@voolia.gov,Swaziland,231.43.255.200
714,Sara,Morris,smorris@realbridge.edu,Malawi,9.238.226.34
715,Terry,Davis,tdavis@reallinks.com,Malaysia,95.57.85.225
716,Andrew,Ramos,aramos@browsezoom.name,Macedonia,170.82.252.131
717,Jonathan,Lawson,jlawson@jabberbean.gov,Dominican Republic,112.193.10.104
718,Barbara,Edwards,bedwards@mydo.net,Mauritius,181.2.252.169
719,Thomas,Ruiz,truiz@tagpad.biz,Rwanda,57.129.129.177
720,Pamela,Tucker,ptucker@yakidoo.mil,Svalbard and Jan Mayen Islands,12.69.164.7
721,Thomas,Greene,tgreene@realfire.edu,Mexico,128.182.41.137
722,Steve,Robinson,srobinson@eire.edu,Antigua and Barbuda,235.90.30.139
723,Lawrence,Scott,lscott@twitterbridge.com,Brazil,13.42.145.67
724,Timothy,Hansen,thansen@brainbox.info,Oman,70.113.245.177
725,Virginia,Williamson,vwilliamson@mydeo.biz,Guatemala,176.97.151.89
726,Gerald,Alexander,galexander@skajo.org,Sudan,15.170.100.177
727,Roy,Ferguson,rferguson@plambee.biz,Norway,210.82.66.232
728,Louise,Romero,lromero@realbuzz.net,Cook Islands,189.18.219.193
729,Russell,Bradley,rbradley@meembee.gov,Kyrgyzstan,253.144.172.165
730,Judith,Wallace,jwallace@zooxo.edu,Palau,96.120.130.195
731,Cheryl,Anderson,canderson@yamia.edu,Luxembourg,179.14.230.230
732,Bobby,Shaw,bshaw@wordpedia.name,Monaco,204.156.37.56
733,Robert,Thomas,rthomas@divanoodle.com,"Congo, Democratic Republic of",246.237.25.157
734,Jose,Reid,jreid@feedfish.edu,Netherlands,140.6.102.155
735,Margaret,Fowler,mfowler@thoughtbeat.gov,Slovakia,42.225.93.13
736,Frances,Lawson,flawson@devcast.gov,Bahrain,29.235.57.240
737,Philip,Rodriguez,prodriguez@innoz.org,United States Virgin Islands,76.63.209.122
738,Phyllis,Burton,pburton@einti.mil,Ethiopia,199.85.171.15
739,Samuel,Cooper,scooper@photobean.org,Hong Kong,228.110.90.44
740,Michelle,Edwards,medwards@lajo.name,Nicaragua,46.86.190.0
741,Joe,Myers,jmyers@riffpedia.edu,Turks and Caicos Islands,97.199.130.169
742,Teresa,Johnston,tjohnston@devpulse.name,Ethiopia,87.3.231.100
743,James,Fox,jfox@jabbercube.com,Cape Verde,169.177.235.40
744,Daniel,Lee,dlee@mycat.gov,Thailand,200.193.189.116
745,Amy,Jacobs,ajacobs@rhycero.biz,Kenya,114.83.241.238
746,Brian,Hamilton,bhamilton@feedfire.com,Namibia,114.168.83.149
747,Louise,Hart,lhart@buzzshare.info,Nigeria,126.11.139.116
748,Nicole,Young,nyoung@zava.mil,Guyana,236.121.96.206
749,Keith,Willis,kwillis@brainlounge.net,Liechtenstein,11.185.137.208
750,Todd,Riley,triley@realcube.info,Tokelau,25.250.64.66
751,Jean,Russell,jrussell@oyondu.mil,Comoros,251.243.111.225
752,Dorothy,Bennett,dbennett@feedbug.gov,Estonia,227.129.239.203
753,Amy,Mitchell,amitchell@oozz.info,Russia,91.146.37.25
754,Steven,Walker,swalker@dabshots.org,Bosnia and Herzegovina,253.90.123.52
755,Walter,Turner,wturner@skalith.com,Nigeria,250.139.70.174
756,Andrew,Flores,aflores@teklist.net,Reunion,16.121.149.93
757,Julie,Williamson,jwilliamson@buzzdog.name,Nicaragua,142.86.239.171
758,Deborah,Henderson,dhenderson@latz.org,Cambodia,167.212.127.106
759,Martha,Howell,mhowell@mynte.edu,Cote d'Ivoire,205.90.51.169
760,Barbara,Fernandez,bfernandez@midel.biz,Paraguay,198.227.158.36
761,Sharon,Hawkins,shawkins@twiyo.mil,Eritrea,127.11.194.90
762,Jason,Wallace,jwallace@tagpad.org,Christmas Island,32.162.95.210
763,Carolyn,Smith,csmith@divanoodle.biz,Netherlands Antilles,53.50.248.73
764,Carolyn,Ramirez,cramirez@zoomdog.mil,Oman,200.67.171.203
765,Joseph,Carpenter,jcarpenter@devbug.biz,Syria,102.152.137.126
766,Joe,Griffin,jgriffin@skyba.info,French Guiana,175.115.1.179
767,Clarence,Stephens,cstephens@quatz.biz,Botswana,223.29.145.45
768,Steve,Hill,shill@kaymbo.info,Macedonia,198.41.234.59
769,Ashley,Black,ablack@bluejam.info,Senegal,65.161.166.51
770,Martin,Harrison,mharrison@nlounge.gov,Papua New Guinea,146.242.32.90
771,Gregory,Sims,gsims@avavee.name,Equatorial Guinea,58.99.162.76
772,Kathleen,Rodriguez,krodriguez@devpulse.org,Sudan,26.78.173.62
773,Helen,Hunter,hhunter@meezzy.net,Jersey,251.240.243.50
774,Gloria,Campbell,gcampbell@feedfire.com,United States of America,121.188.50.197
775,Lisa,Cox,lcox@janyx.info,Saint Pierre and Miquelon,117.140.229.156
776,Eugene,Franklin,efranklin@jamia.net,Reunion,207.9.173.69
777,Michael,Reynolds,mreynolds@topicshots.biz,"Korea, North",184.187.108.176
778,Louis,Thomas,lthomas@feedfish.edu,Nicaragua,61.37.220.160
779,Elizabeth,Jones,ejones@buzzster.net,United Arab Emirates,235.81.252.135
780,Steve,Ramos,sramos@gabvine.edu,Ethiopia,52.138.123.127
781,Joshua,Riley,jriley@wikizz.info,Algeria,200.116.48.238
782,Carl,Lynch,clynch@shuffletag.name,Russia,21.107.253.229
783,Michelle,Diaz,mdiaz@avaveo.edu,Comoros,125.242.152.195
784,Todd,Sanchez,tsanchez@trunyx.mil,Guyana,171.72.87.99
785,Daniel,Griffin,dgriffin@jabbercube.gov,"Congo, Democratic Republic of",3.175.219.197
786,Donald,Lawrence,dlawrence@flipopia.net,Northern Mariana Islands,107.158.152.244
787,Mildred,Jones,mjones@zoomzone.org,"Korea, South",168.52.15.86
788,Antonio,Bradley,abradley@voonyx.org,Maldives,232.169.61.61
789,Albert,Willis,awillis@avamba.org,Taiwan,137.155.202.151
790,Linda,Murray,lmurray@livez.edu,Guadeloupe,150.48.142.110
791,Kathleen,Ross,kross@jayo.org,"Congo, Republic of",132.170.56.169
792,Judith,Roberts,jroberts@zoonder.name,Nauru,28.48.215.197
793,Alan,Bailey,abailey@skidoo.biz,Heard and McDonald Islands,25.10.136.76
794,Jane,Smith,jsmith@jamia.gov,Solomon Islands,214.23.59.121
795,Beverly,Wright,bwright@camimbo.org
796,David,Kelly,dkelly@shufflester.com,Madagascar,43.120.20.144
797,Doris,Sims,dsims@brainsphere.net,Ireland,126.202.228.85
798,Rachel,Reyes,rreyes@oyonder.name,Faroe Islands,230.128.74.54
799,Ruth,Black,rblack@trilith.edu,Iceland,92.31.21.132
800,Mildred,Adams,madams@dabz.biz,India,139.190.140.207
801,Harold,Reyes,hreyes@avamba.mil,France,187.175.60.94
802,Helen,Mills,hmills@katz.net,Saint Vincent and the Grenadines,86.196.149.108
803,Benjamin,Grant,bgrant@topicshots.com,Kiribati,249.204.183.189
804,Jesse,Frazier,jfrazier@riffpedia.info,Belarus,7.230.17.78
805,Laura,Harris,lharris@devify.name,Gabon,129.59.129.94
806,Pamela,Hayes,phayes@realcube.net,Bahamas,230.191.223.227
807,Jason,Webb,jwebb@mynte.mil,Ireland,58.169.195.147
808,Betty,Murphy,bmurphy@thoughtsphere.edu,New Zealand,219.114.28.127
809,Fred,Hansen,fhansen@blogtag.mil,South Georgia and the South Sandwich Islands,217.155.175.193
810,Linda,Rogers,lrogers@voonder.org,Mauritius,19.194.54.49
811,Nicholas,Lane,nlane@zoomdog.org,Pakistan,63.215.242.237
812,Patrick,West,pwest@divape.mil,Chad,105.122.45.232
813,Donald,Carpenter,dcarpenter@avamm.edu,San Marino,187.227.173.96
814,Stephen,Dixon,sdixon@photobug.edu,Micronesia,148.124.31.208
815,Shawn,Wells,swells@linklinks.biz,Guyana,218.75.217.169
816,Julia,Bailey,jbailey@blogtag.biz,Armenia,30.11.167.235
817,Willie,Peters,wpeters@rhyloo.edu,Saint Barthelemy,58.221.110.90
818,Lawrence,Adams,ladams@aimbu.info,Sudan,227.175.3.92
819,Paul,Perkins,pperkins@quimba.mil,Gibraltar,196.2.117.30
820,Janet,Franklin,jfranklin@yata.com,Sri Lanka,79.115.120.61
821,Jimmy,Carter,jcarter@shufflester.mil,Luxembourg,9.169.66.37
822,James,Thompson,jthompson@zoombeat.mil,Zimbabwe,153.253.95.93
823,Craig,Gardner,cgardner@wikivu.name,Hong Kong,4.234.171.176
824,Kathleen,Morales,kmorales@blogpad.edu,Azerbaijan,211.245.213.120
825,Jeremy,Webb,jwebb@gevee.gov,Slovakia,236.36.7.11
826,Kevin,Evans,kevans@ooba.name,Cameroon,45.99.232.42
827,Patricia,Gilbert,pgilbert@buzzshare.edu,Åland,50.51.132.96
828,Eugene,Parker,eparker@jayo.name,Cuba,86.12.229.61
829,Anthony,Mendoza,amendoza@riffpedia.name,Sudan,99.186.131.87
830,Justin,Cruz,jcruz@realpoint.org,Kazakhstan,27.175.228.162
831,Deborah,Greene,dgreene@roombo.biz,Burundi,161.131.34.159
832,Jose,Reed,jreed@gabvine.mil,Montenegro,162.65.126.144
833,Sean,Gordon,sgordon@fatz.biz,Algeria,146.106.44.199
834,Victor,Mitchell,vmitchell@teklist.edu,Mauritania,209.66.130.154
835,Janet,Garza,jgarza@mynte.gov,Taiwan,141.4.9.49
836,Philip,Fernandez,pfernandez@innoz.com,United Arab Emirates,239.148.2.48
837,Justin,Fox,jfox@blogtags.gov,Greenland,156.42.114.96
838,Betty,Austin,baustin@centizu.edu,Saint Helena,76.53.116.110
839,Timothy,Torres,ttorres@yadel.info,Finland,114.195.84.41
840,Gary,Mcdonald,gmcdonald@tekfly.org,Lithuania,91.218.34.215
841,Ronald,Lane,rlane@jamia.name,US Minor Outlying Islands,35.73.214.128
842,Juan,Fox,jfox@skimia.edu,Denmark,220.211.123.136
843,Evelyn,Fox,efox@kwinu.biz,Central African Republic,170.116.156.4
844,Brenda,Perez,bperez@thoughtworks.name,Vatican City State (Holy See),76.176.158.51
845,Linda,Fernandez,lfernandez@einti.com,Finland,45.145.39.219
846,Lois,Wagner,lwagner@mita.org,Lesotho,186.82.69.238
847,Laura,Vasquez,lvasquez@avamba.mil,Saint Kitts and Nevis,214.228.13.253
848,Carl,Simpson,csimpson@dablist.biz,French Guiana,241.146.18.10
849,Brandon,Ramos,bramos@cogidoo.gov,Brazil,7.131.1.12
850,Rose,Diaz,rdiaz@vinte.edu,Senegal,128.47.95.56
851,Peter,Brown,pbrown@riffpedia.name,"Palestinian Territory, Occupied",166.230.253.58
852,Joe,Jackson,jjackson@jetpulse.com,Papua New Guinea,3.33.99.179
853,Tina,Allen,tallen@thoughtworks.gov,Tanzania,210.141.255.117
854,Gary,Kennedy,gkennedy@oozz.biz,Bangladesh,51.163.75.65
855,Nicholas,Johnson,njohnson@twitterwire.info,Heard and McDonald Islands,240.81.0.147
856,Theresa,Collins,tcollins@quire.mil,Burkina Faso,153.107.228.100
857,Doris,Alexander,dalexander@jetpulse.org,Macedonia,77.86.128.38
858,Ann,Palmer,apalmer@blogtags.gov,"Korea, North",132.26.129.241
859,Nancy,Gilbert,ngilbert@chatterbridge.name,Netherlands,98.118.41.9
860,Alice,Fields,afields@meevee.info,United States of America,252.29.187.201
861,Roger,Black,rblack@oozz.com,Fiji,152.137.246.89
862,Kimberly,Williamson,kwilliamson@gigaclub.com,US Minor Outlying Islands,61.29.178.163
863,Kenneth,Taylor,ktaylor@oyope.com,Montserrat,61.146.200.64
864,Judith,Sullivan,jsullivan@agivu.gov,Equatorial Guinea,255.99.213.218
865,Jesse,Hudson,jhudson@kare.net,Cayman Islands,248.178.46.113
866,Mary,Hart,mhart@twitternation.edu,New Caledonia,10.151.43.35
867,Kelly,Ray,kray@oyonder.net,Netherlands Antilles,224.104.166.46
868,Jesse,Andrews,jandrews@thoughtsphere.biz,"Korea, South",89.253.124.8
869,Jennifer,Harper,jharper@youopia.biz,India,88.247.115.235
870,Kelly,Williams,kwilliams@shuffledrive.name,Turkmenistan,70.245.66.131
871,Stephanie,White,swhite@twitterbridge.gov,United Arab Emirates,79.17.186.86
872,Louise,Black,lblack@dazzlesphere.name,Angola,118.2.34.30
873,Jacqueline,Smith,jsmith@twimm.mil,Cocos (Keeling) Island,141.166.22.248
874,Carlos,Warren,cwarren@tazz.com,Uzbekistan,166.43.214.26
875,Albert,Stevens,astevens@jabberbean.name,Saint Kitts and Nevis,226.140.218.246
876,Paula,Elliott,pelliott@tekfly.edu,Tuvalu,221.12.133.123
877,Nicole,Vasquez,nvasquez@edgeblab.info,Cape Verde,53.199.195.4
878,Catherine,Stone,cstone@dynabox.mil,Cape Verde,29.101.166.224
879,Louis,Evans,levans@brainlounge.mil,Mauritania,9.216.99.226
880,Jerry,Rose,jrose@yabox.org,Togo,223.245.4.109
881,Frances,Harris,fharris@trunyx.name,South Georgia and the South Sandwich Islands,228.184.44.244
882,Marie,Garza,mgarza@leenti.name,British Indian Ocean Territory,175.52.246.126
883,Arthur,Harvey,aharvey@skyvu.gov,Comoros,128.70.85.73
884,Sharon,Baker,sbaker@roomm.gov,Slovakia,160.213.72.44
885,Samuel,Mcdonald,smcdonald@zoozzy.biz,Vietnam,228.35.107.115
886,William,Long,wlong@mycat.biz,Oman,184.50.249.147
887,Steven,Phillips,sphillips@brainbox.gov,Armenia,42.115.215.112
888,Gloria,Bishop,gbishop@photobug.biz,New Zealand,67.89.170.95
889,Robin,Hughes,rhughes@quire.org,Botswana,115.24.97.50
890,Jean,Riley,jriley@kaymbo.com,French Southern Territories,162.106.219.166
891,Patrick,Hansen,phansen@yata.mil,Suriname,234.35.185.143
892,Maria,Payne,mpayne@skajo.edu,USSR,67.48.5.82
893,Jean,Gordon,jgordon@ntags.net,Iran,200.3.14.47
894,Philip,Gordon,pgordon@devify.name,Mauritania,210.32.178.150
895,Kathy,Wallace,kwallace@shuffledrive.info,Monaco,12.64.124.242
896,Antonio,Castillo,acastillo@centimia.edu,China,116.61.31.136
897,Peter,Evans,pevans@oyondu.info,Spain,92.221.243.3
898,Andrew,Castillo,acastillo@demimbu.net,Heard and McDonald Islands,158.121.162.6
899,Dennis,Diaz,ddiaz@trupe.name,Panama,17.216.33.223
900,Ruby,King,rking@divavu.net,Norfolk Island,119.179.124.43
901,Carlos,Hughes,chughes@dynazzy.mil,Cape Verde,241.53.19.12
902,Judith,Hanson,jhanson@twimbo.gov,Senegal,124.190.179.239
903,Margaret,Bailey,mbailey@meedoo.mil,Uruguay,1.220.47.79
904,Louis,Price,lprice@miboo.com,Seychelles,104.245.7.120
905,William,Edwards,wedwards@talane.mil,Spain,46.115.237.244
906,Kevin,Brown,kbrown@feedfire.mil,Mayotte,147.3.142.19
907,Andrea,Fields,afields@katz.name,Palau,5.244.22.163
908,Susan,Fisher,sfisher@jatri.gov,France,126.158.51.153
909,Lawrence,Thompson,lthompson@quinu.mil,Marshall Islands,31.156.153.208
910,Eric,Knight,eknight@quimm.gov,Cook Islands,126.195.221.39
911,Jose,Hernandez,jhernandez@topiczoom.net,French Southern Territories,7.50.74.251
912,Jerry,Black,jblack@eidel.org,Ukraine,26.95.218.28
913,Sarah,Gordon,sgordon@rhynoodle.mil,Norfolk Island,8.254.101.4
914,Carlos,Hall,chall@wordtune.edu,Russia,138.60.245.132
915,Anthony,Cooper,acooper@wordpedia.net,Tajikistan,206.163.90.111
916,Arthur,Daniels,adaniels@thoughtworks.org,Saint Barthelemy,204.3.221.111
917,John,Wagner,jwagner@zoozzy.org,American Samoa,244.100.38.245
918,Willie,Garcia,wgarcia@dabvine.edu,Barbados,29.79.193.124
919,Linda,Snyder,lsnyder@skipfire.edu,Guatemala,39.140.169.176
920,Sarah,Scott,sscott@abatz.biz,Uzbekistan,233.192.127.24
921,Christina,Warren,cwarren@quimm.com,Malaysia,171.24.11.116
922,Heather,Mcdonald,hmcdonald@youspan.gov,Burundi,46.19.255.121
923,Kimberly,Young,kyoung@yombu.gov,Slovenia,60.5.118.207
924,Wanda,Owens,wowens@lajo.info,Cayman Islands,216.41.124.97
925,Charles,Morris,cmorris@yakidoo.org,Switzerland,92.174.6.63
926,Tammy,Wright,twright@bluejam.info,Christmas Island,243.112.233.18
927,Debra,Daniels,ddaniels@wikibox.net,Western Sahara,25.4.30.163
928,Jack,Kim,jkim@fatz.mil,Tajikistan,96.1.213.130
929,Nicholas,Jenkins,njenkins@zoomdog.name,Czech Republic,80.121.190.128
930,Gerald,Warren,gwarren@gabtype.info,Mauritania,181.66.165.190
931,Thomas,Medina,tmedina@lajo.info,Bermuda,142.75.245.27
932,Amy,Stephens,astephens@trudeo.mil,Czech Republic,192.238.225.183
933,Kelly,Mills,kmills@gigazoom.info,Myanmar,159.72.169.80
934,James,Sims,jsims@quatz.mil,Germany,211.191.217.20
935,Janet,Baker,jbaker@yodoo.net,Heard and McDonald Islands,70.208.54.196
936,Rose,Armstrong,rarmstrong@zoombeat.gov,Bermuda,17.69.149.222
937,Daniel,Lee,dlee@dynabox.gov,Venezuela,4.123.27.27
938,Terry,Flores,tflores@jabbertype.info,Norway,138.177.84.137
939,Martha,Ramos,mramos@jabberstorm.com,Faroe Islands,157.11.248.82
940,Lois,Reynolds,lreynolds@skimia.biz,New Caledonia,251.225.216.192
941,Scott,Fowler,sfowler@topicblab.gov,Heard and McDonald Islands,174.4.244.64
942,Joyce,Murray,jmurray@ntags.com,Jersey,106.170.134.59
943,Diane,Hanson,dhanson@dynabox.edu,Cameroon,115.227.251.101
944,Elizabeth,Dean,edean@browsetype.biz,Antigua and Barbuda,220.27.57.211
945,Ronald,Schmidt,rschmidt@jaloo.com,"Palestinian Territory, Occupied",90.151.185.203
946,Kathryn,Meyer,kmeyer@fatz.gov,United States of America,199.246.171.191
947,Lori,Robertson,lrobertson@meetz.edu,Guinea,86.201.98.75
948,Jeremy,Stevens,jstevens@zoombox.edu,Comoros,18.202.27.69
949,Victor,Stewart,vstewart@flipstorm.mil,Somalia,134.34.113.122
950,Patrick,Flores,pflores@photofeed.info,Luxembourg,117.168.131.118
951,Jennifer,Perkins,jperkins@devcast.name,Taiwan,121.107.139.232
952,Steven,Hudson,shudson@podcat.info,Nigeria,193.127.209.28
953,Frances,Bowman,fbowman@devcast.biz,Belize,107.1.108.104
954,Jean,Jacobs,jjacobs@mymm.org,Rwanda,109.183.213.117
955,Brian,Garza,bgarza@buzzbean.com,Austria,216.25.29.183
956,Pamela,Ortiz,portiz@shufflebeat.info,Uruguay,250.69.24.159
957,Brian,Duncan,bduncan@riffpedia.mil,Comoros,198.101.127.122
958,Anna,Richards,arichards@thoughtbridge.edu,Andorra,48.192.21.12
959,Keith,Mills,kmills@blogtag.org,Kuwait,159.170.25.166
960,Jonathan,Lewis,jlewis@dabfeed.org,Guam,26.55.123.126
961,Kimberly,Morrison,kmorrison@zava.edu,Papua New Guinea,58.251.181.10
962,Terry,Cunningham,tcunningham@yata.info,Vietnam,143.245.199.156
963,Jacqueline,Banks,jbanks@dazzlesphere.info,Uzbekistan,124.168.251.72
964,Janet,Dunn,jdunn@rhynoodle.com,Trinidad and Tobago,45.199.30.27
965,Alan,Woods,awoods@janyx.edu,Mexico,188.218.140.211
966,Jack,Rivera,jrivera@skivee.org,Bahrain,69.119.171.88
967,Robert,Gonzalez,rgonzalez@tagtune.biz,United Kingdom,245.45.49.206
968,Susan,Tucker,stucker@kwinu.name,Saint Martin,165.241.186.189
969,Dennis,Harper,dharper@zoomzone.info,"Korea, South",222.44.132.112
970,Nancy,Vasquez,nvasquez@kaymbo.info,Heard and McDonald Islands,57.144.244.221
971,Lori,Cox,lcox@wikido.biz,Benin,195.106.229.13
972,Virginia,Lawson,vlawson@pixope.org,Antigua and Barbuda,70.37.85.16
973,Jennifer,Castillo,jcastillo@kaymbo.net,Slovakia,119.123.172.160
974,Martha,George,mgeorge@realmix.org,Guinea-Bissau,241.186.46.43
975,Matthew,Garrett,mgarrett@yakijo.biz,Vatican City State (Holy See),238.226.222.251
976,Christopher,Alexander,calexander@roombo.org,Mongolia,208.50.4.139
977,Eric,Ryan,eryan@meevee.gov,Sierra Leone,42.216.92.77
978,Norma,Brown,nbrown@skajo.com,Nauru,9.151.7.235
979,Willie,Jackson,wjackson@twimbo.org,Australia,81.50.253.160
980,Kathryn,Green,kgreen@blogxs.org,Greece,249.7.98.93
981,Mildred,Morgan,mmorgan@chatterbridge.edu,Algeria,27.130.216.121
982,Judy,Harris,jharris@yacero.info,Saint Barthelemy,254.11.245.239
983,Alan,Miller,amiller@kwinu.gov,Venezuela,140.107.184.233
984,Michelle,Diaz,mdiaz@dynabox.net,Greece,36.100.252.246
985,Christina,Stephens,cstephens@browsedrive.net,Slovakia,201.252.133.139
986,Judith,Shaw,jshaw@zoombeat.gov,Australia,217.128.253.64
987,Henry,Wright,hwright@mynte.mil,Venezuela,239.3.31.163
988,Paul,Arnold,parnold@brainsphere.info,Bouvet Island,178.79.230.71
989,Michael,Moreno,mmoreno@oozz.net,Latvia,175.15.187.75
990,Wayne,Carter,wcarter@skaboo.edu,China,166.58.87.110
991,Kathryn,Medina,kmedina@oyoba.org,Guinea,162.11.9.72
992,Brian,Cox,bcox@aivee.edu,Guadeloupe,41.186.33.73
993,Eric,Welch,ewelch@innojam.name,Nigeria,158.90.152.128
994,Frances,Burton,fburton@pixoboo.edu,Solomon Islands,234.157.76.78
995,Jeffrey,Cole,jcole@zoonder.net,Cocos (Keeling) Island,25.136.97.90
996,Tina,Richardson,trichardson@mydo.edu,Andorra,170.195.59.222
997,Louise,Evans,levans@divape.biz,Jersey,138.189.110.10
998,Marilyn,Banks,mbanks@skidoo.biz,India,33.31.159.216
999,Eugene,Richards,erichards@fliptune.name,Ascension Island,42.73.206.178
1000,Ann,Kelly,akelly@feedspan.com,"Palestinian Territory, Occupied",43.166.45.216
