﻿1;1;;1;Test1;5;5;5;1;1;AZ2;201001;r1;r2;r3;r4;r5;r6;r7;r8;r9;r10
1;2;;1;Test2;5;5;5;1;1;AZ2;201001;r1;r2;r3;r4;r5;r6;r7;r8;r9;r10
1;3;;1;Test3;5;5;5;1;1;AZ2;201001;r1;r2;r3;r4;r5;r6;r7;r8;r9;r10
1;4;;1;Test4;5;5;5;1;1;AZ2;201001;r1;r2;r3;r4;r5;r6;r7;r8;r9;r10
1;5;;1;Test5;5;5;5;1;1;AZ2;201001;r1;r2;r3;r4;r5;r6;r7;r8;r9;r10
1;6;;1;Test6;5;5;5;1;1;AZ2;201001;r1;r2;r3;r4;r5;r6;r7;r8;r9;r10
1;7;;1;Test7;5;5;5;1;1;AZ2;201001;r1;r2;r3;r4;r5;r6;r7;r8;r9;r10
1;8;;1;Test8;5;5;5;1;1;AZ2;201001;r1;r2;r3;r4;r5;r6;r7;r8;r9;r10
1;9;;1;Test9;5;5;5;1;1;AZ2;201001;r1;r2;r3;r4;r5;r6;r7;r8;r9;r10
1;10;;1;Test10;5;5;5;1;1;AZ2;201001;r1;r2;r3;r4;r5;r6;r7;r8;r9;r10