00000000014;00000008950176206500;52;RSC;0222;0099;CTN;F00;21.62;0;15.00;0;13.31;0;NAN;60;1
00000000014;00000008950176206501;52;RSC;0223;0099;CTN;F00;21.62;0;15.00;0;13.31;0;NAN;10;1
00000000014;00000008950176206502;52;RSC;0211;0099;CTN;D00;16.00;0;13.00;0;12.00;0;NAN;40;1
00000000014;00000008950176206503;52;RSC;0111;0099;CTN;F00;21.62;0;15.00;0;13.31;0;NAN;10;1
00000000014;00000008950176206504;52;RSC;0412;0099;CTN;A00;12.00;0;9.00;0;4.00;0;NAN;40;1
00000000014;00000008950176206505;52;RSC;0024;0099;CTN;F21;17.00;0;14.00;0;11.00;0;NAN;10;1
00000000014;00000008950176206506;52;RSC;0211;0099;CTN;A00;12.00;0;9.00;0;4.00;0;NAN;40;1
00000000014;00000008950176206507;52;RSC;0424;0099;CTN;D16;17.00;0;11.00;0;7.00;0;NAN;20;1
00000000014;00000008950176206508;52;RSC;0324;0099;CTN;A00;12.00;0;9.00;0;4.00;0;NAN;30;1
00000000014;00000008950176206509;52;RSC;0213;0099;CTN;305;21.00;0;13.00;0;5.00;0;NAN;30;1
00000000014;00000008950176206510;52;RSC;0021;0099;CTN;A00;12.00;0;9.00;0;4.00;0;NAN;70;1
00000000014;00000008950176206511;52;RSC;0023;0099;CTN;A00;12.00;0;9.00;0;4.00;0;NAN;20;1
00000000014;00000008950176206512;52;RSC;0414;0099;CTN;310;18.00;0;14.00;0;4.00;0;NAN;50;1
00000000014;00000008950176206513;52;RSC;0023;0099;CTN;A00;12.00;0;9.00;0;4.00;0;NAN;80;1
00000000014;00000008950176206514;52;RSC;0114;0099;CTN;A00;12.00;0;9.00;0;4.00;0;NAN;30;1
00000000014;00000008950176206515;52;RSC;0113;0099;CTN;C02;15.00;0;10.00;0;8.00;0;NAN;30;1
00000000014;00000008950176206516;52;RSC;0321;0099;CTN;A00;12.00;0;9.00;0;4.00;0;NAN;70;1
00000000014;00000008950176206517;52;RSC;0211;0099;CTN;A00;12.00;0;9.00;0;4.00;0;NAN;80;1
00000000014;00000008950176206518;52;RSC;0213;0099;CTN;A00;12.00;0;9.00;0;4.00;0;NAN;10;1
00000000014;00000008950176206519;52;RSC;0412;0099;CTN;B12;14.00;0;9.00;0;4.00;0;NAN;30;1
00000000014;00000008950176206520;52;RSC;0111;0099;CTN;A00;12.00;0;9.00;0;4.00;0;NAN;10;1
00000000014;00000008950176206521;101;RSC;0224;0099;CTN;B14;12.00;0;10.00;0;4.00;0;NAN;40;1
00000000014;00000008950176206522;52;RSC;0322;0099;CTN;A00;12.00;0;9.00;0;4.00;0;NAN;20;1
00000000014;00000008950176206523;52;RSC;0022;0099;CTN;A00;12.00;0;9.00;0;4.00;0;NAN;60;1
00000000014;00000008950176206524;52;RSC;0113;0099;CTN;A00;12.00;0;9.00;0;4.00;0;NAN;70;1
00000000014;00000008950176206525;52;RSC;0413;0099;CTN;D34;12.00;0;11.00;0;4.00;0;NAN;10;1
00000000014;00000008950176206526;52;RSC;0211;0099;CTN;A00;12.00;0;9.00;0;4.00;0;NAN;70;1
00000000014;00000008950176206527;52;RSC;0023;0099;CTN;F00;21.62;0;15.00;0;13.31;0;NAN;10;1
00000000014;00000008950176206528;101;RSC;0322;0099;CTN;D24;15.00;0;13.00;0;4.50;0;NAN;80;1
00000000014;00000008950176206529;101;RSC;0221;0099;CTN;A00;12.00;0;9.00;0;4.00;0;NAN;70;1
00000000014;00000008950176206530;52;RSC;0213;0099;CTN;C05;15.00;0;10.00;0;6.00;0;NAN;70;1
00000000014;00000008950176206531;101;RSC;0213;0099;CTN;A00;12.00;0;9.00;0;4.00;0;NAN;10;1
00000000014;00000008950176206532;52;RSC;0312;0099;CTN;D00;16.00;0;13.00;0;12.00;0;NAN;70;1
00000000014;00000008950176206533;52;RSC;0314;0099;CTN;D10;16.00;0;13.00;0;8.00;0;NAN;80;1
00000000014;00000008950176206534;52;RSC;0412;0099;CTN;D07;16.00;0;13.00;0;9.00;0;NAN;10;1
00000000014;00000008950176206535;52;RSC;0021;0099;CTN;300;21.00;0;14.00;0;6.50;0;NAN;10;1
00000000014;00000008950176206536;52;RSC;0312;0099;CTN;D03;14.00;0;13.00;0;11.50;0;NAN;80;1
00000000014;00000008950176206537;52;RSC;0024;0099;CTN;B03;12.00;0;9.00;0;7.50;0;NAN;80;1
00000000014;00000008950176206538;52;RSC;0021;0099;CTN;B14;12.00;0;10.00;0;4.00;0;NAN;50;1
00000000014;00000008950176206539;52;RSC;0113;0099;CTN;A00;12.00;0;9.00;0;4.00;0;NAN;40;1
00000000014;00000008950176206540;52;RSC;0022;0099;CTN;D01;17.00;0;12.00;0;12.00;0;NAN;50;1
00000000014;00000008950176206541;52;RSC;0211;0099;CTN;D30;16.00;0;11.00;0;4.00;0;NAN;70;1
00000000014;00000008950176206542;52;RSC;0114;0099;CTN;D16;17.00;0;11.00;0;7.00;0;NAN;70;1
00000000014;00000008950176206543;52;RSC;0213;0099;CTN;F20;17.00;0;15.00;0;10.50;0;NAN;10;1
00000000014;00000008950176206544;52;RSC;0212;0099;CTN;B07;14.00;0;9.00;0;5.00;0;NAN;90;1
00000000014;00000008950176206545;52;RSC;0223;0099;CTN;A00;12.00;0;9.00;0;4.00;0;NAN;80;1
00000000014;00000008950176206546;52;RSC;0322;0099;CTN;B04;14.00;0;9.00;0;6.00;0;NAN;70;1
00000000014;00000008950176206547;52;RSC;0322;0099;CTN;D30;16.00;0;11.00;0;4.00;0;NAN;70;1
00000000014;00000008950176206548;52;RSC;0022;0099;CTN;F00;21.62;0;15.00;0;13.31;0;NAN;20;1
00000000014;00000008950176206549;52;RSC;0314;0099;CTN;D00;16.00;0;13.00;0;12.00;0;NAN;40;1
00000000014;00000008950176206550;52;RSC;0224;0099;CTN;D09;14.00;0;12.00;0;10.00;0;NAN;80;1
00000000014;00000008950176206551;52;RSC;0114;0099;CTN;F26;19.00;0;13.00;0;9.00;0;NAN;10;1
00000000014;00000008950176206552;52;RSC;0411;0099;CTN;B03;12.00;0;9.00;0;7.50;0;NAN;90;1
00000000014;00000008950176206553;52;RSC;0211;0099;CTN;C00;16.00;0;10.00;0;9.00;0;NAN;80;1
00000000014;00000008950176206554;52;RSC;0114;0099;CTN;B02;14.00;0;10.00;0;6.50;0;NAN;50;1
00000000014;00000008950176206555;52;RSC;0024;0099;CTN;D10;16.00;0;13.00;0;8.00;0;NAN;30;1
00000000014;00000008950176206556;52;RSC;0111;0099;CTN;D18;13.00;0;11.00;0;9.00;0;NAN;40;1
00000000014;00000008950176206557;52;RSC;0021;0099;CTN;F00;21.62;0;15.00;0;13.31;0;NAN;20;1
00000000014;00000008950176206558;52;RSC;0023;0099;CTN;D14;12.00;0;12.00;0;10.00;0;NAN;10;1
00000000014;00000008950176206559;52;RSC;0112;0099;CTN;F20;17.00;0;15.00;0;10.50;0;NAN;10;1
00000000014;00000008950176206560;52;RSC;0311;0099;CTN;B12;14.00;0;9.00;0;4.00;0;NAN;20;1
00000000014;00000008950176206561;52;RSC;0221;0099;CTN;F00;21.62;0;15.00;0;13.31;0;NAN;80;1
00000000014;00000008950176206562;52;RSC;0111;0099;CTN;D20;18.00;0;12.00;0;5.00;0;NAN;40;1
00000000014;00000008950176206563;52;RSC;0224;0099;CTN;B04;14.00;0;9.00;0;6.00;0;NAN;80;1
00000000014;00000008950176206564;52;RSC;0111;0099;CTN;F14;20.00;0;15.00;0;10.00;0;NAN;60;1
00000000014;00000008950176206565;52;RSC;0221;0099;CTN;F11;21.00;0;14.00;0;11.00;0;NAN;80;1
00000000014;00000008950176206566;52;RSC;0311;0099;CTN;A00;12.00;0;9.00;0;4.00;0;NAN;40;1
00000000014;00000008950176206567;52;RSC;0324;0099;CTN;300;21.00;0;14.00;0;6.50;0;NAN;40;1
00000000014;00000008950176206568;52;RSC;0322;0099;CTN;C00;16.00;0;10.00;0;9.00;0;NAN;20;1
00000000014;00000008950176206569;52;RSC;0113;0099;CTN;D14;12.00;0;12.00;0;10.00;0;NAN;60;1
00000000014;00000008950176206570;52;RSC;0314;0099;CTN;D06;16.00;0;12.00;0;10.00;0;NAN;70;1
00000000014;00000008950176206571;52;RSC;0112;0099;CTN;B08;12.00;0;9.00;0;5.50;0;NAN;50;1
00000000014;00000008950176206572;52;RSC;0222;0099;CTN;F19;16.00;0;13.00;0;13.00;0;NAN;50;1
00000000014;00000008950176206573;52;RSC;0222;0099;CTN;B06;12.00;0;9.00;0;6.00;0;NAN;30;1
00000000014;00000008950176206574;52;RSC;0211;0099;CTN;308;17.00;0;15.00;0;4.50;0;NAN;40;1
00000000014;00000008950176206575;52;RSC;0413;0099;CTN;D03;14.00;0;13.00;0;11.50;0;NAN;80;1
00000000014;00000008950176206576;52;RSC;0023;0099;CTN;F09;20.00;0;14.00;0;12.50;0;NAN;10;1
00000000014;00000008950176206577;52;RSC;0223;0099;CTN;D07;16.00;0;13.00;0;9.00;0;NAN;20;1
00000000014;00000008950176206578;52;RSC;0114;0099;CTN;B07;14.00;0;9.00;0;5.00;0;NAN;70;1
00000000014;00000008950176206579;52;RSC;0213;0099;CTN;D25;18.00;0;12.00;0;4.00;0;NAN;50;1
00000000014;00000008950176206580;52;RSC;0313;0099;CTN;A00;12.00;0;9.00;0;4.00;0;NAN;80;1
00000000014;00000008950176206581;52;RSC;0413;0099;CTN;312;19.00;0;9.00;0;4.00;0;NAN;50;1
00000000014;00000008950176206582;52;RSC;0411;0099;CTN;D17;18.00;0;12.00;0;6.00;0;NAN;20;1
00000000014;00000008950176206583;52;RSC;0111;0099;CTN;F00;21.62;0;15.00;0;13.31;0;NAN;70;1
00000000014;00000008950176206584;52;RSC;0424;0099;CTN;D32;13.00;0;11.00;0;4.50;0;NAN;10;1
00000000014;00000008950176206585;52;RSC;0022;0099;CTN;C02;15.00;0;10.00;0;8.00;0;NAN;10;1
00000000014;00000008950176206586;52;RSC;0224;0099;CTN;305;21.00;0;13.00;0;5.00;0;NAN;60;1
00000000014;00000008950176206587;52;RSC;0021;0099;CTN;D26;13.00;0;11.00;0;6.00;0;NAN;10;1
00000000014;00000008950176206588;52;RSC;0412;0099;CTN;F30;16.00;0;14.00;0;8.50;0;NAN;30;1
00000000014;00000008950176206589;52;RSC;0422;0099;CTN;D08;13.00;0;12.00;0;11.00;0;NAN;70;1
00000000014;00000008950176206590;52;RSC;0314;0099;CTN;D23;16.00;0;12.00;0;5.00;0;NAN;50;1
00000000014;00000008950176206591;52;RSC;0423;0099;CTN;F00;21.62;0;15.00;0;13.31;0;NAN;20;1
00000000014;00000008950176206592;52;RSC;0424;0099;CTN;F03;21.00;0;15.00;0;12.00;0;NAN;70;1
00000000014;00000008950176206593;52;RSC;0212;0099;CTN;F19;16.00;0;13.00;0;13.00;0;NAN;60;1
00000000014;00000008950176206594;52;RSC;0321;0099;CTN;F17;21.00;0;15.00;0;9.00;0;NAN;60;1
00000000014;00000008950176206595;52;RSC;0024;0099;CTN;F19;16.00;0;13.00;0;13.00;0;NAN;50;1
00000000014;00000008950176206596;52;RSC;0112;0099;CTN;D27;17.00;0;12.00;0;4.00;0;NAN;10;1
00000000014;00000008950176206597;52;RSC;0112;0099;CTN;A00;12.00;0;9.00;0;4.00;0;NAN;90;1
00000000014;00000008950176206598;52;RSC;0111;0099;CTN;F28;17.00;0;15.00;0;8.00;0;NAN;60;1
00000000014;00000008950176206599;52;RSC;0414;0099;CTN;C07;15.00;0;10.00;0;4.50;0;NAN;20;1
00000000014;00000008950176206600;52;RSC;0023;0099;CTN;A00;12.00;0;9.00;0;4.00;0;NAN;70;1
00000000014;00000008950176206601;101;RSC;0021;0099;CTN;A00;12.00;0;9.00;0;4.00;0;NAN;70;1
00000000014;00000008950176206602;52;RSC;0412;0099;CTN;310;18.00;0;14.00;0;4.00;0;NAN;20;1
00000000014;00000008950176206603;52;RSC;0024;0099;CTN;307;21.00;0;14.00;0;4.00;0;NAN;70;1
00000000014;00000008950176206604;52;RSC;0211;0099;CTN;C09;16.00;0;9.00;0;4.00;0;NAN;90;1
00000000014;00000008950176206605;52;RSC;0114;0099;CTN;F06;21.00;0;13.00;0;13.00;0;NAN;80;1
00000000014;00000008950176206606;52;RSC;0211;0099;CTN;C06;15.00;0;10.00;0;5.00;0;NAN;10;1
00000000014;00000008950176206607;52;RSC;0112;0099;CTN;D01;17.00;0;12.00;0;12.00;0;NAN;50;1
00000000014;00000008950176206608;52;RSC;0114;0099;CTN;D12;14.00;0;12.00;0;9.00;0;NAN;20;1
00000000014;00000008950176206609;52;RSC;0323;0099;CTN;D24;15.00;0;13.00;0;4.50;0;NAN;80;1
00000000014;00000008950176206610;52;RSC;0114;0099;CTN;D09;14.00;0;12.00;0;10.00;0;NAN;20;1
00000000014;00000008950176206611;52;RSC;0023;0099;CTN;D32;13.00;0;11.00;0;4.50;0;NAN;50;1
00000000014;00000008950176206612;52;RSC;0422;0099;CTN;A00;12.00;0;9.00;0;4.00;0;NAN;70;1
00000000014;00000008950176206613;52;RSC;0424;0099;CTN;D05;16.00;0;12.00;0;10.50;0;NAN;10;1
00000000014;00000008950176206614;52;RSC;0213;0099;CTN;F16;18.00;0;13.00;0;12.50;0;NAN;50;1
00000000014;00000008950176206615;52;RSC;0422;0099;CTN;B09;14.00;0;9.00;0;4.50;0;NAN;60;1
00000000014;00000008950176206616;52;RSC;0413;0099;CTN;D27;17.00;0;12.00;0;4.00;0;NAN;40;1
00000000014;00000008950176206617;52;RSC;0424;0099;CTN;D33;13.00;0;11.00;0;4.00;0;NAN;60;1
00000000014;00000008950176206618;52;RSC;0024;0099;CTN;A00;12.00;0;9.00;0;4.00;0;NAN;10;1
00000000014;00000008950176206619;52;RSC;0424;0099;CTN;F00;21.62;0;15.00;0;13.31;0;NAN;30;1
00000000014;00000008950176206620;52;RSC;0323;0099;CTN;D01;17.00;0;12.00;0;12.00;0;NAN;30;1
00000000014;00000008950176206621;52;RSC;0322;0099;CTN;B14;12.00;0;10.00;0;4.00;0;NAN;60;1
00000000014;00000008950176206622;52;RSC;0112;0099;CTN;F00;21.62;0;15.00;0;13.31;0;NAN;10;1
00000000014;00000008950176206623;52;RSC;0222;0099;CTN;F20;17.00;0;15.00;0;10.50;0;NAN;90;1
00000000014;00000008950176206624;52;RSC;0223;0099;CTN;B09;14.00;0;9.00;0;4.50;0;NAN;80;1
00000000014;00000008950176206625;52;RSC;0223;0099;CTN;D34;12.00;0;11.00;0;4.00;0;NAN;60;1
00000000014;00000008950176206626;52;RSC;0221;0099;CTN;A00;12.00;0;9.00;0;4.00;0;NAN;10;1
00000000014;00000008950176206627;52;RSC;0214;0099;CTN;A00;12.00;0;9.00;0;4.00;0;NAN;10;1
00000000014;00000008950176206628;52;RSC;0213;0099;CTN;307;21.00;0;14.00;0;4.00;0;NAN;60;1
00000000014;00000008950176206629;52;RSC;0423;0099;CTN;A00;12.00;0;9.00;0;4.00;0;NAN;20;1
00000000014;00000008950176206630;52;RSC;0214;0099;CTN;B14;12.00;0;10.00;0;4.00;0;NAN;20;1
00000000014;00000008950176206631;52;RSC;0022;0099;CTN;F00;21.62;0;15.00;0;13.31;0;NAN;70;1
00000000014;00000008950176206632;52;RSC;0311;0099;CTN;F19;16.00;0;13.00;0;13.00;0;NAN;70;1
00000000014;00000008950176206633;52;RSC;0111;0099;CTN;F18;19.00;0;12.00;0;12.00;0;NAN;50;1
00000000014;00000008950176206634;52;RSC;0114;0099;CTN;B14;12.00;0;10.00;0;4.00;0;NAN;80;1
00000000014;00000008950176206635;101;RSC;0311;0099;CTN;F28;17.00;0;15.00;0;8.00;0;NAN;40;1
00000000014;00000008950176206636;52;RSC;0222;0099;CTN;F00;21.62;0;15.00;0;13.31;0;NAN;30;1
00000000014;00000008950176206637;52;RSC;0222;0099;CTN;F00;21.62;0;15.00;0;13.31;0;NAN;40;1
00000000014;00000008950176206638;52;RSC;0022;0099;CTN;B04;14.00;0;9.00;0;6.00;0;NAN;50;1
00000000014;00000008950176206639;52;RSC;0223;0099;CTN;A00;12.00;0;9.00;0;4.00;0;NAN;40;1
00000000014;00000008950176206640;101;RSC;0221;0099;CTN;B03;12.00;0;9.00;0;7.50;0;NAN;40;1
00000000014;00000008950176206641;101;RSC;0024;0099;CTN;301;20.00;0;15.00;0;6.00;0;NAN;40;1
00000000014;00000008950176206642;52;RSC;0414;0099;CTN;D24;15.00;0;13.00;0;4.50;0;NAN;20;1
00000000014;00000008950176206643;52;RSC;0424;0099;CTN;D27;17.00;0;12.00;0;4.00;0;NAN;20;1
00000000014;00000008950176206644;52;RSC;0114;0099;CTN;F20;17.00;0;15.00;0;10.50;0;NAN;40;1
00000000014;00000008950176206645;52;RSC;0022;0099;CTN;B14;12.00;0;10.00;0;4.00;0;NAN;30;1
00000000014;00000008950176206646;101;RSC;0213;0099;CTN;C08;15.00;0;9.00;0;4.50;0;NAN;10;1
00000000014;00000008950176206647;101;RSC;0322;0099;CTN;D00;16.00;0;13.00;0;12.00;0;NAN;50;1
00000000014;00000008950176206648;101;RSC;0223;0099;CTN;B02;14.00;0;10.00;0;6.50;0;NAN;20;1
00000000014;00000008950176206649;101;RSC;0412;0099;CTN;A00;12.00;0;9.00;0;4.00;0;NAN;80;1
00000000014;00000008950176206650;101;RSC;0022;0099;CTN;D04;18.00;0;12.00;0;9.50;0;NAN;20;1
00000000014;00000008950176206651;52;RSC;0111;0099;CTN;D19;13.00;0;13.00;0;7.00;0;NAN;90;1
00000000014;00000008950176206652;52;RSC;0312;0099;CTN;A00;12.00;0;9.00;0;4.00;0;NAN;30;1
00000000014;00000008950176206653;101;RSC;0114;0099;CTN;B09;14.00;0;9.00;0;4.50;0;NAN;60;1
00000000014;00000008950176206654;52;RSC;0221;0099;CTN;F00;21.62;0;15.00;0;13.31;0;NAN;30;1
00000000014;00000008950176206655;52;RSC;0112;0099;CTN;F22;20.00;0;14.00;0;9.00;0;NAN;80;1
00000000014;00000008950176206656;52;RSC;0421;0099;CTN;F24;16.00;0;14.00;0;10.50;0;NAN;10;1
00000000014;00000008950176206657;52;RSC;0111;0099;CTN;A00;12.00;0;9.00;0;4.00;0;NAN;10;1
00000000014;00000008950176206658;52;RSC;0211;0099;CTN;B10;12.00;0;9.00;0;5.00;0;NAN;30;1
00000000014;00000008950176206659;52;RSC;0114;0099;CTN;F00;21.62;0;15.00;0;13.31;0;NAN;30;1
00000000014;00000008950176206660;52;RSC;0021;0099;CTN;F18;19.00;0;12.00;0;12.00;0;NAN;10;1
00000000014;00000008950176206661;52;RSC;0221;0099;CTN;F00;21.62;0;15.00;0;13.31;0;NAN;40;1
00000000014;00000008950176206662;52;RSC;0111;0099;CTN;F00;21.62;0;15.00;0;13.31;0;NAN;40;1
00000000014;00000008950176206663;52;RSC;0222;0099;CTN;A00;12.00;0;9.00;0;4.00;0;NAN;20;1
00000000014;00000008950176206664;52;RSC;0111;0099;CTN;D11;15.00;0;11.00;0;9.50;0;NAN;30;1
00000000014;00000008950176206665;52;RSC;0224;0099;CTN;D17;18.00;0;12.00;0;6.00;0;NAN;80;1
00000000014;00000008950176206666;52;RSC;0112;0099;CTN;B03;12.00;0;9.00;0;7.50;0;NAN;20;1
00000000014;00000008950176206667;52;RSC;0323;0099;CTN;D03;14.00;0;13.00;0;11.50;0;NAN;50;1
00000000014;00000008950176206668;52;RSC;0313;0099;CTN;F00;21.62;0;15.00;0;13.31;0;NAN;80;1
00000000014;00000008950176206669;52;RSC;0221;0099;CTN;B14;12.00;0;10.00;0;4.00;0;NAN;80;1
00000000014;00000008950176206670;52;RSC;0323;0099;CTN;B03;12.00;0;9.00;0;7.50;0;NAN;80;1
00000000014;00000008950176206671;52;RSC;0223;0099;CTN;A00;12.00;0;9.00;0;4.00;0;NAN;50;1
00000000014;00000008950176206672;52;RSC;0212;0099;CTN;C06;15.00;0;10.00;0;5.00;0;NAN;30;1
00000000014;00000008950176206673;52;RSC;0212;0099;CTN;A00;12.00;0;9.00;0;4.00;0;NAN;40;1
00000000014;00000008950176206674;52;RSC;0214;0099;CTN;310;18.00;0;14.00;0;4.00;0;NAN;30;1
00000000014;00000008950176206675;52;RSC;0023;0099;CTN;B11;13.00;0;10.00;0;4.00;0;NAN;90;1
00000000014;00000008950176206676;52;RSC;0022;0099;CTN;D30;16.00;0;11.00;0;4.00;0;NAN;90;1
00000000014;00000008950176206677;52;RSC;0421;0099;CTN;310;18.00;0;14.00;0;4.00;0;NAN;50;1
00000000014;00000008950176206678;52;RSC;0324;0099;CTN;B02;14.00;0;10.00;0;6.50;0;NAN;60;1
00000000014;00000008950176206679;52;RSC;0211;0099;CTN;F22;20.00;0;14.00;0;9.00;0;NAN;10;1
00000000014;00000008950176206680;52;RSC;0112;0099;CTN;308;17.00;0;15.00;0;4.50;0;NAN;10;1
00000000014;00000008950176206681;52;RSC;0313;0099;CTN;A00;12.00;0;9.00;0;4.00;0;NAN;90;1
00000000014;00000008950176206682;52;RSC;0423;0099;CTN;B05;12.00;0;10.00;0;5.50;0;NAN;80;1
00000000014;00000008950176206683;52;RSC;0022;0099;CTN;D23;16.00;0;12.00;0;5.00;0;NAN;40;1
00000000014;00000008950176206684;52;RSC;0111;0099;CTN;D07;16.00;0;13.00;0;9.00;0;NAN;20;1
00000000014;00000008950176206685;52;RSC;0223;0099;CTN;D31;13.00;0;13.00;0;4.00;0;NAN;10;1
00000000014;00000008950176206686;52;RSC;0021;0099;CTN;C08;15.00;0;9.00;0;4.50;0;NAN;10;1
00000000014;00000008950176206687;52;RSC;0111;0099;CTN;A00;12.00;0;9.00;0;4.00;0;NAN;70;1
00000000014;00000008950176206688;52;RSC;0411;0099;CTN;A00;12.00;0;9.00;0;4.00;0;NAN;20;1
00000000014;00000008950176206689;52;RSC;0422;0099;CTN;A00;12.00;0;9.00;0;4.00;0;NAN;10;1
00000000014;00000008950176206690;52;RSC;0021;0099;CTN;F22;20.00;0;14.00;0;9.00;0;NAN;70;1
00000000014;00000008950176206691;52;RSC;0114;0099;CTN;A00;12.00;0;9.00;0;4.00;0;NAN;70;1
00000000014;00000008950176206692;52;RSC;0113;0099;CTN;D03;14.00;0;13.00;0;11.50;0;NAN;40;1
00000000014;00000008950176206693;52;RSC;0221;0099;CTN;B14;12.00;0;10.00;0;4.00;0;NAN;20;1
00000000014;00000008950176206694;101;RSC;0223;0099;CTN;B07;14.00;0;9.00;0;5.00;0;NAN;90;1
00000000014;00000008950176206695;101;RSC;0423;0099;CTN;A00;12.00;0;9.00;0;4.00;0;NAN;90;1
00000000014;00000008950176206696;101;RSC;0023;0099;CTN;D26;13.00;0;11.00;0;6.00;0;NAN;90;1
00000000014;00000008950176206697;101;RSC;0321;0099;CTN;D32;13.00;0;11.00;0;4.50;0;NAN;60;1
00000000014;00000008950176206698;52;RSC;0212;0099;CTN;D00;16.00;0;13.00;0;12.00;0;NAN;70;1
00000000014;00000008950176206699;52;RSC;0022;0099;CTN;D00;16.00;0;13.00;0;12.00;0;NAN;70;1
00000000014;00000008950176206700;52;RSC;0424;0099;CTN;D00;16.00;0;13.00;0;12.00;0;NAN;30;1
00000000014;00000008950176206701;52;RSC;0022;0099;CTN;D00;16.00;0;13.00;0;12.00;0;NAN;70;1
00000000014;00000008950176206702;52;RSC;0112;0099;CTN;D00;16.00;0;13.00;0;12.00;0;NAN;50;1
00000000014;00000008950176206703;52;RSC;0423;0099;CTN;D00;16.00;0;13.00;0;12.00;0;NAN;10;1
00000000014;00000008950176206704;52;RSC;0213;0099;CTN;D00;16.00;0;13.00;0;12.00;0;NAN;90;1
00000000014;00000008950176206705;52;RSC;0413;0099;CTN;F13;18.00;0;15.00;0;11.50;0;NAN;10;1
00000000014;00000008950176206706;52;RSC;0212;0099;CTN;A00;12.00;0;9.00;0;4.00;0;NAN;20;1
00000000014;00000008950176206707;52;RSC;0222;0099;CTN;B10;12.00;0;9.00;0;5.00;0;NAN;80;1
00000000014;00000008950176206708;52;RSC;0314;0099;CTN;F12;17.00;0;15.00;0;12.50;0;NAN;20;1
00000000014;00000008950176206709;52;RSC;0021;0099;CTN;B13;12.00;0;9.00;0;4.50;0;NAN;30;1
00000000014;00000008950176206710;52;RSC;0324;0099;CTN;D20;18.00;0;12.00;0;5.00;0;NAN;70;1
00000000014;00000008950176206711;52;RSC;0421;0099;CTN;A00;12.00;0;9.00;0;4.00;0;NAN;30;1
00000000014;00000008950176206712;52;RSC;0021;0099;CTN;F00;21.62;0;15.00;0;13.31;0;NAN;70;1
00000000014;00000008950176206713;52;RSC;0112;0099;CTN;C05;15.00;0;10.00;0;6.00;0;NAN;40;1
00000000014;00000008950176206714;52;RSC;0112;0099;CTN;D00;16.00;0;13.00;0;12.00;0;NAN;50;1
00000000014;00000008950176206715;52;RSC;0213;0099;CTN;D00;16.00;0;13.00;0;12.00;0;NAN;70;1
00000000014;00000008950176206716;52;RSC;0112;0099;CTN;D00;16.00;0;13.00;0;12.00;0;NAN;60;1
00000000014;00000008950176206717;52;RSC;0214;0099;CTN;D00;16.00;0;13.00;0;12.00;0;NAN;50;1
00000000014;00000008950176206718;52;RSC;0112;0099;CTN;F19;16.00;0;13.00;0;13.00;0;NAN;70;1
00000000014;00000008950176206719;52;RSC;0323;0099;CTN;F23;20.00;0;15.00;0;8.00;0;NAN;30;1
00000000014;00000008950176206720;52;RSC;0213;0099;CTN;D16;17.00;0;11.00;0;7.00;0;NAN;10;1
00000000014;00000008950176206721;52;RSC;0113;0099;CTN;B08;12.00;0;9.00;0;5.50;0;NAN;30;1
00000000014;00000008950176206722;52;RSC;0211;0099;CTN;F00;21.62;0;15.00;0;13.31;0;NAN;50;1
00000000014;00000008950176206723;52;RSC;0113;0099;CTN;304;21.00;0;15.00;0;4.50;0;NAN;30;1
00000000014;00000008950176206724;52;RSC;0411;0099;CTN;302;18.00;0;15.00;0;6.00;0;NAN;80;1
00000000014;00000008950176206725;52;RSC;0414;0099;CTN;F00;21.62;0;15.00;0;13.31;0;NAN;30;1
00000000014;00000008950176206726;52;RSC;0114;0099;CTN;D22;13.00;0;11.00;0;7.00;0;NAN;90;1
00000000014;00000008950176206727;52;RSC;0021;0099;CTN;D16;17.00;0;11.00;0;7.00;0;NAN;50;1
00000000014;00000008950176206728;52;RSC;0114;0099;CTN;D18;13.00;0;11.00;0;9.00;0;NAN;90;1
00000000014;00000008950176206729;52;RSC;0224;0099;CTN;A00;12.00;0;9.00;0;4.00;0;NAN;90;1
00000000014;00000008950176206730;52;RSC;0221;0099;CTN;D21;16.00;0;11.00;0;6.00;0;NAN;70;1
00000000014;00000008950176206731;52;RSC;0113;0099;CTN;C03;14.00;0;10.00;0;8.50;0;NAN;70;1
00000000014;00000008950176206732;52;RSC;0024;0099;CTN;A00;12.00;0;9.00;0;4.00;0;NAN;90;1
00000000014;00000008950176206733;52;RSC;0311;0099;CTN;D08;13.00;0;12.00;0;11.00;0;NAN;40;1
00000000014;00000008950176206734;52;RSC;0313;0099;CTN;309;21.00;0;13.00;0;4.00;0;NAN;20;1
00000000014;00000008950176206735;52;RSC;0022;0099;CTN;F00;21.62;0;15.00;0;13.31;0;NAN;20;1
00000000014;00000008950176206736;52;RSC;0211;0099;CTN;D25;18.00;0;12.00;0;4.00;0;NAN;20;1
00000000014;00000008950176206737;52;RSC;0321;0099;CTN;C06;15.00;0;10.00;0;5.00;0;NAN;60;1
00000000014;00000008950176206738;52;RSC;0021;0099;CTN;D01;17.00;0;12.00;0;12.00;0;NAN;70;1
00000000014;00000008950176206739;52;RSC;0024;0099;CTN;C07;15.00;0;10.00;0;4.50;0;NAN;20;1
00000000014;00000008950176206740;52;RSC;0212;0099;CTN;D05;16.00;0;12.00;0;10.50;0;NAN;40;1
00000000014;00000008950176206741;52;RSC;0113;0099;CTN;B14;12.00;0;10.00;0;4.00;0;NAN;60;1
00000000014;00000008950176206742;52;RSC;0111;0099;CTN;A00;12.00;0;9.00;0;4.00;0;NAN;70;1
00000000014;00000008950176206743;52;RSC;0112;0099;CTN;D19;13.00;0;13.00;0;7.00;0;NAN;90;1
00000000014;00000008950176206744;52;RSC;0224;0099;CTN;D29;17.00;0;9.00;0;5.00;0;NAN;10;1
00000000014;00000008950176206745;52;RSC;0113;0099;CTN;A00;12.00;0;9.00;0;4.00;0;NAN;10;1
00000000014;00000008950176206746;52;RSC;0112;0099;CTN;D10;16.00;0;13.00;0;8.00;0;NAN;30;1
00000000014;00000008950176206747;52;RSC;0112;0099;CTN;D06;16.00;0;12.00;0;10.00;0;NAN;20;1
00000000014;00000008950176206748;52;RSC;0422;0099;CTN;A00;12.00;0;9.00;0;4.00;0;NAN;70;1
00000000014;00000008950176206749;52;RSC;0224;0099;CTN;D09;14.00;0;12.00;0;10.00;0;NAN;50;1
00000000014;00000008950176206750;52;RSC;0314;0099;CTN;C07;15.00;0;10.00;0;4.50;0;NAN;50;1
00000000014;00000008950176206751;52;RSC;0024;0099;CTN;F25;20.00;0;14.00;0;8.00;0;NAN;50;1
00000000014;00000008950176206752;52;RSC;0022;0099;CTN;D01;17.00;0;12.00;0;12.00;0;NAN;20;1
00000000014;00000008950176206753;52;RSC;0214;0099;CTN;D01;17.00;0;12.00;0;12.00;0;NAN;10;1
00000000014;00000008950176206754;52;RSC;0211;0099;CTN;D00;16.00;0;13.00;0;12.00;0;NAN;10;1
00000000014;00000008950176206755;52;RSC;0222;0099;CTN;F00;21.62;0;15.00;0;13.31;0;NAN;70;1
00000000014;00000008950176206756;52;RSC;0324;0099;CTN;F00;21.62;0;15.00;0;13.31;0;NAN;40;1
00000000014;00000008950176206757;52;RSC;0021;0099;CTN;F00;21.62;0;15.00;0;13.31;0;NAN;50;1
00000000014;00000008950176206758;52;RSC;0212;0099;CTN;F00;21.62;0;15.00;0;13.31;0;NAN;60;1
00000000014;00000008950176206759;52;RSC;0413;0099;CTN;F00;21.62;0;15.00;0;13.31;0;NAN;70;1
00000000014;00000008950176206760;52;RSC;0423;0099;CTN;F00;21.62;0;15.00;0;13.31;0;NAN;50;1
00000000014;00000008950176206761;52;RSC;0423;0099;CTN;F00;21.62;0;15.00;0;13.31;0;NAN;90;1
00000000014;00000008950176206762;52;RSC;0113;0099;CTN;F00;21.62;0;15.00;0;13.31;0;NAN;70;1
00000000014;00000008950176206763;52;RSC;0222;0099;CTN;D00;16.00;0;13.00;0;12.00;0;NAN;70;1
00000000014;00000008950176206764;52;RSC;0213;0099;CTN;D00;16.00;0;13.00;0;12.00;0;NAN;70;1
00000000014;00000008950176206765;52;RSC;0021;0099;CTN;D00;16.00;0;13.00;0;12.00;0;NAN;60;1
00000000014;00000008950176206766;52;RSC;0022;0099;CTN;D00;16.00;0;13.00;0;12.00;0;NAN;30;1
00000000014;00000008950176206767;52;RSC;0312;0099;CTN;D00;16.00;0;13.00;0;12.00;0;NAN;20;1
00000000014;00000008950176206768;52;RSC;0112;0099;CTN;D10;16.00;0;13.00;0;8.00;0;NAN;10;1
00000000014;00000008950176206769;52;RSC;0223;0099;CTN;D24;15.00;0;13.00;0;4.50;0;NAN;50;1
00000000014;00000008950176206770;52;RSC;0214;0099;CTN;C03;14.00;0;10.00;0;8.50;0;NAN;60;1
00000000014;00000008950176206771;52;RSC;0224;0099;CTN;F09;20.00;0;14.00;0;12.50;0;NAN;30;1
00000000014;00000008950176206772;52;RSC;0411;0099;CTN;F00;21.62;0;15.00;0;13.31;0;NAN;10;1
00000000014;00000008950176206773;52;RSC;0322;0099;CTN;F16;18.00;0;13.00;0;12.50;0;NAN;60;1
00000000014;00000008950176206774;52;RSC;0424;0099;CTN;A00;12.00;0;9.00;0;4.00;0;NAN;30;1
00000000014;00000008950176206775;52;RSC;0214;0099;CTN;F10;21.00;0;15.00;0;11.00;0;NAN;10;1
00000000014;00000008950176206776;52;RSC;0112;0099;CTN;A00;12.00;0;9.00;0;4.00;0;NAN;10;1
00000000014;00000008950176206777;52;RSC;0024;0099;CTN;B09;14.00;0;9.00;0;4.50;0;NAN;60;1
00000000014;00000008950176206778;52;RSC;0312;0099;CTN;C03;14.00;0;10.00;0;8.50;0;NAN;50;1
00000000014;00000008950176206779;52;RSC;0022;0099;CTN;D28;13.00;0;11.00;0;5.50;0;NAN;80;1
00000000014;00000008950176206780;52;RSC;0113;0099;CTN;D01;17.00;0;12.00;0;12.00;0;NAN;20;1
00000000014;00000008950176206781;52;RSC;0113;0099;CTN;F00;21.62;0;15.00;0;13.31;0;NAN;20;1
00000000014;00000008950176206782;52;RSC;0021;0099;CTN;D07;16.00;0;13.00;0;9.00;0;NAN;50;1
00000000014;00000008950176206783;52;RSC;0321;0099;CTN;D24;15.00;0;13.00;0;4.50;0;NAN;30;1
00000000014;00000008950176206784;52;RSC;0021;0099;CTN;D24;15.00;0;13.00;0;4.50;0;NAN;10;1
00000000014;00000008950176206785;52;RSC;0021;0099;CTN;D07;16.00;0;13.00;0;9.00;0;NAN;60;1
00000000014;00000008950176206786;52;RSC;0024;0099;CTN;F11;21.00;0;14.00;0;11.00;0;NAN;80;1
00000000014;00000008950176206787;52;RSC;0112;0099;CTN;A00;12.00;0;9.00;0;4.00;0;NAN;60;1
00000000014;00000008950176206788;52;RSC;0021;0099;CTN;A00;12.00;0;9.00;0;4.00;0;NAN;60;1
00000000014;00000008950176206789;52;RSC;0423;0099;CTN;F15;20.00;0;14.00;0;10.50;0;NAN;10;1
00000000014;00000008950176206790;52;RSC;0022;0099;CTN;A00;12.00;0;9.00;0;4.00;0;NAN;60;1
00000000014;00000008950176206791;52;RSC;0112;0099;CTN;D34;12.00;0;11.00;0;4.00;0;NAN;20;1
00000000014;00000008950176206792;52;RSC;0112;0099;CTN;F00;21.62;0;15.00;0;13.31;0;NAN;30;1
00000000014;00000008950176206793;52;RSC;0311;0099;CTN;A00;12.00;0;9.00;0;4.00;0;NAN;10;1
00000000014;00000008950176206794;52;RSC;0213;0099;CTN;A00;12.00;0;9.00;0;4.00;0;NAN;10;1
00000000014;00000008950176206795;52;RSC;0211;0099;CTN;A00;12.00;0;9.00;0;4.00;0;NAN;70;1
00000000014;00000008950176206796;52;RSC;0311;0099;CTN;A00;12.00;0;9.00;0;4.00;0;NAN;30;1
00000000014;00000008950176206797;52;RSC;0214;0099;CTN;C01;14.00;0;10.00;0;9.00;0;NAN;90;1
00000000014;00000008950176206798;52;RSC;0113;0099;CTN;F07;21.00;0;14.00;0;12.00;0;NAN;80;1
00000000014;00000008950176206799;52;RSC;0022;0099;CTN;A00;12.00;0;9.00;0;4.00;0;NAN;90;1
00000000014;00000008950176206800;101;RSC;0312;0099;CTN;F28;17.00;0;15.00;0;8.00;0;NAN;90;1
00000000014;00000008950176206801;52;RSC;0423;0099;CTN;D22;13.00;0;11.00;0;7.00;0;NAN;40;1
00000000014;00000008950176206802;52;RSC;0112;0099;CTN;D02;18.00;0;12.00;0;10.50;0;NAN;70;1
00000000014;00000008950176206803;52;RSC;0212;0099;CTN;B14;12.00;0;10.00;0;4.00;0;NAN;80;1
00000000014;00000008950176206804;101;RSC;0112;0099;CTN;D00;16.00;0;13.00;0;12.00;0;NAN;20;1
00000000014;00000008950176206805;101;RSC;0021;0099;CTN;D04;18.00;0;12.00;0;9.50;0;NAN;60;1
00000000014;00000008950176206806;101;RSC;0224;0099;CTN;F09;20.00;0;14.00;0;12.50;0;NAN;90;1
00000000014;00000008950176206807;101;RSC;0322;0099;CTN;D28;13.00;0;11.00;0;5.50;0;NAN;30;1
00000000014;00000008950176206808;52;RSC;0113;0099;CTN;B02;14.00;0;10.00;0;6.50;0;NAN;30;1
00000000014;00000008950176206809;52;RSC;0024;0099;CTN;B06;12.00;0;9.00;0;6.00;0;NAN;30;1
00000000014;00000008950176206810;52;RSC;0024;0099;CTN;C05;15.00;0;10.00;0;6.00;0;NAN;50;1
00000000014;00000008950176206811;52;RSC;0021;0099;CTN;A00;12.00;0;9.00;0;4.00;0;NAN;20;1
00000000014;00000008950176206812;52;RSC;0221;0099;CTN;D23;16.00;0;12.00;0;5.00;0;NAN;10;1
00000000014;00000008950176206813;52;RSC;0214;0099;CTN;C06;15.00;0;10.00;0;5.00;0;NAN;80;1
00000000014;00000008950176206814;52;RSC;0224;0099;CTN;A00;12.00;0;9.00;0;4.00;0;NAN;90;1
00000000014;00000008950176206815;52;RSC;0113;0099;CTN;B09;14.00;0;9.00;0;4.50;0;NAN;40;1
00000000014;00000008950176206816;52;RSC;0314;0099;CTN;F20;17.00;0;15.00;0;10.50;0;NAN;40;1
00000000014;00000008950176206817;52;RSC;0111;0099;CTN;B12;14.00;0;9.00;0;4.00;0;NAN;20;1
00000000014;00000008950176206818;52;RSC;0212;0099;CTN;F21;17.00;0;14.00;0;11.00;0;NAN;20;1
00000000014;00000008950176206819;52;RSC;0422;0099;CTN;A00;12.00;0;9.00;0;4.00;0;NAN;60;1
00000000014;00000008950176206820;52;RSC;0212;0099;CTN;D07;16.00;0;13.00;0;9.00;0;NAN;20;1
00000000014;00000008950176206821;52;RSC;0312;0099;CTN;A00;12.00;0;9.00;0;4.00;0;NAN;70;1
00000000014;00000008950176206822;101;RSC;0213;0099;CTN;F00;21.62;0;15.00;0;13.31;0;NAN;70;1
00000000014;00000008950176206823;101;RSC;0111;0099;CTN;D28;13.00;0;11.00;0;5.50;0;NAN;90;1
00000000014;00000008950176206824;101;RSC;0112;0099;CTN;A00;12.00;0;9.00;0;4.00;0;NAN;80;1
00000000014;00000008950176206825;52;RSC;0323;0099;CTN;A00;12.00;0;9.00;0;4.00;0;NAN;50;1
00000000014;00000008950176206826;52;RSC;0113;0099;CTN;F00;21.62;0;15.00;0;13.31;0;NAN;50;1
00000000014;00000008950176206827;52;RSC;0412;0099;CTN;F00;21.62;0;15.00;0;13.31;0;NAN;30;1
00000000014;00000008950176206828;52;RSC;0024;0099;CTN;D03;14.00;0;13.00;0;11.50;0;NAN;70;1
00000000014;00000008950176206829;52;RSC;0411;0099;CTN;F00;21.62;0;15.00;0;13.31;0;NAN;50;1
00000000014;00000008950176206830;52;RSC;0021;0099;CTN;A00;12.00;0;9.00;0;4.00;0;NAN;10;1
00000000014;00000008950176206831;101;RSC;0111;0099;CTN;C05;15.00;0;10.00;0;6.00;0;NAN;20;1
00000000014;00000008950176206832;101;RSC;0111;0099;CTN;304;21.00;0;15.00;0;4.50;0;NAN;10;1
00000000014;00000008950176206833;101;RSC;0111;0099;CTN;D23;16.00;0;12.00;0;5.00;0;NAN;40;1
00000000014;00000008950176206834;101;RSC;0314;0099;CTN;C08;15.00;0;9.00;0;4.50;0;NAN;50;1
00000000014;00000008950176206835;101;RSC;0212;0099;CTN;B09;14.00;0;9.00;0;4.50;0;NAN;20;1
00000000014;00000008950176206836;101;RSC;0112;0099;CTN;310;18.00;0;14.00;0;4.00;0;NAN;10;1
00000000014;00000008950176206837;101;RSC;0321;0099;CTN;B14;12.00;0;10.00;0;4.00;0;NAN;30;1
00000000014;00000008950176206838;101;RSC;0212;0099;CTN;D24;15.00;0;13.00;0;4.50;0;NAN;70;1
00000000014;00000008950176206839;52;RSC;0024;0099;CTN;A00;12.00;0;9.00;0;4.00;0;NAN;10;1
00000000014;00000008950176206840;52;RSC;0311;0099;CTN;D06;16.00;0;12.00;0;10.00;0;NAN;20;1
00000000014;00000008950176206841;52;RSC;0213;0099;CTN;D18;13.00;0;11.00;0;9.00;0;NAN;50;1
00000000014;00000008950176206842;52;RSC;0114;0099;CTN;D16;17.00;0;11.00;0;7.00;0;NAN;20;1
00000000014;00000008950176206843;52;RSC;0214;0099;CTN;F00;21.62;0;15.00;0;13.31;0;NAN;10;1
00000000014;00000008950176206844;52;RSC;0422;0099;CTN;311;21.00;0;9.00;0;5.00;0;NAN;90;1
00000000014;00000008950176206845;52;RSC;0111;0099;CTN;C08;15.00;0;9.00;0;4.50;0;NAN;10;1
00000000014;00000008950176206846;52;RSC;0224;0099;CTN;307;21.00;0;14.00;0;4.00;0;NAN;60;1
00000000014;00000008950176206847;101;RSC;0214;0099;CTN;A00;12.00;0;9.00;0;4.00;0;NAN;30;1
00000000014;00000008950176206848;101;RSC;0021;0099;CTN;A00;12.00;0;9.00;0;4.00;0;NAN;60;1
00000000014;00000008950176206849;101;RSC;0222;0099;CTN;F00;21.62;0;15.00;0;13.31;0;NAN;60;1
00000000014;00000008950176206850;101;RSC;0214;0099;CTN;D21;16.00;0;11.00;0;6.00;0;NAN;60;1
00000000014;00000008950176206851;52;RSC;0212;0099;CTN;C07;15.00;0;10.00;0;4.50;0;NAN;10;1
00000000014;00000008950176206852;52;RSC;0213;0099;CTN;F16;18.00;0;13.00;0;12.50;0;NAN;30;1
00000000014;00000008950176206853;52;RSC;0422;0099;CTN;A00;12.00;0;9.00;0;4.00;0;NAN;10;1
00000000014;00000008950176206854;52;RSC;0024;0099;CTN;D24;15.00;0;13.00;0;4.50;0;NAN;80;1
00000000014;00000008950176206855;52;RSC;0022;0099;CTN;D13;13.00;0;11.00;0;10.50;0;NAN;40;1
00000000014;00000008950176206856;52;RSC;0222;0099;CTN;F12;17.00;0;15.00;0;12.50;0;NAN;20;1
00000000014;00000008950176206857;52;RSC;0224;0099;CTN;F00;21.62;0;15.00;0;13.31;0;NAN;50;1
00000000014;00000008950176206858;52;RSC;0321;0099;CTN;D09;14.00;0;12.00;0;10.00;0;NAN;10;1
00000000014;00000008950176206859;101;RSC;0222;0099;CTN;A00;12.00;0;9.00;0;4.00;0;NAN;10;1
00000000014;00000008950176206860;101;RSC;0321;0099;CTN;D27;17.00;0;12.00;0;4.00;0;NAN;40;1
00000000014;00000008950176206861;52;RSC;0224;0099;CTN;301;20.00;0;15.00;0;6.00;0;NAN;20;1
00000000014;00000008950176206862;52;RSC;0414;0099;CTN;D09;14.00;0;12.00;0;10.00;0;NAN;40;1
00000000014;00000008950176206863;52;RSC;0413;0099;CTN;D32;13.00;0;11.00;0;4.50;0;NAN;30;1
00000000014;00000008950176206864;52;RSC;0111;0099;CTN;B12;14.00;0;9.00;0;4.00;0;NAN;40;1
00000000014;00000008950176206865;52;RSC;0221;0099;CTN;D33;13.00;0;11.00;0;4.00;0;NAN;20;1
00000000014;00000008950176206866;52;RSC;0022;0099;CTN;F25;20.00;0;14.00;0;8.00;0;NAN;60;1
00000000014;00000008950176206867;101;RSC;0314;0099;CTN;D01;17.00;0;12.00;0;12.00;0;NAN;60;1
00000000014;00000008950176206868;101;RSC;0222;0099;CTN;300;21.00;0;14.00;0;6.50;0;NAN;50;1
00000000014;00000008950176206869;101;RSC;0314;0099;CTN;F00;21.62;0;15.00;0;13.31;0;NAN;10;1
00000000014;00000008950176206870;101;RSC;0021;0099;CTN;F00;21.62;0;15.00;0;13.31;0;NAN;10;1
00000000014;00000008950176206871;101;RSC;0023;0099;CTN;C06;15.00;0;10.00;0;5.00;0;NAN;50;1
00000000014;00000008950176206872;101;RSC;0311;0099;CTN;D00;16.00;0;13.00;0;12.00;0;NAN;20;1
00000000014;00000008950176206873;101;RSC;0413;0099;CTN;300;21.00;0;14.00;0;6.50;0;NAN;90;1
00000000014;00000008950176206874;101;RSC;0312;0099;CTN;F29;21.00;0;12.00;0;8.00;0;NAN;10;1
00000000014;00000008950176206875;52;RSC;0223;0099;CTN;B14;12.00;0;10.00;0;4.00;0;NAN;80;1
00000000014;00000008950176206876;52;RSC;0314;0099;CTN;302;18.00;0;15.00;0;6.00;0;NAN;90;1
00000000014;00000008950176206877;52;RSC;0422;0099;CTN;B12;14.00;0;9.00;0;4.00;0;NAN;20;1
00000000014;00000008950176206878;52;RSC;0224;0099;CTN;A00;12.00;0;9.00;0;4.00;0;NAN;90;1
00000000014;00000008950176206879;52;RSC;0024;0099;CTN;D00;16.00;0;13.00;0;12.00;0;NAN;40;1
00000000014;00000008950176206880;52;RSC;0314;0099;CTN;B10;12.00;0;9.00;0;5.00;0;NAN;60;1
00000000014;00000008950176206881;52;RSC;0324;0099;CTN;F05;20.00;0;15.00;0;12.00;0;NAN;90;1
00000000014;00000008950176206882;52;RSC;0113;0099;CTN;F22;20.00;0;14.00;0;9.00;0;NAN;60;1
00000000014;00000008950176206883;52;RSC;0022;0099;CTN;F23;20.00;0;15.00;0;8.00;0;NAN;70;1
00000000014;00000008950176206884;52;RSC;0323;0099;CTN;302;18.00;0;15.00;0;6.00;0;NAN;80;1
00000000014;00000008950176206885;52;RSC;0421;0099;CTN;300;21.00;0;14.00;0;6.50;0;NAN;30;1
00000000014;00000008950176206886;52;RSC;0023;0099;CTN;F07;21.00;0;14.00;0;12.00;0;NAN;30;1
00000000014;00000008950176206887;52;RSC;0313;0099;CTN;D34;12.00;0;11.00;0;4.00;0;NAN;50;1
00000000014;00000008950176206888;52;RSC;0224;0099;CTN;A00;12.00;0;9.00;0;4.00;0;NAN;30;1
00000000014;00000008950176206889;52;RSC;0022;0099;CTN;D15;13.00;0;12.00;0;9.00;0;NAN;90;1
00000000014;00000008950176206890;52;RSC;0023;0099;CTN;306;15.00;0;14.00;0;6.00;0;NAN;70;1
00000000014;00000008950176206891;52;RSC;0213;0099;CTN;F00;21.62;0;15.00;0;13.31;0;NAN;90;1
00000000014;00000008950176206892;52;RSC;0114;0099;CTN;B06;12.00;0;9.00;0;6.00;0;NAN;80;1
00000000014;00000008950176206893;52;RSC;0022;0099;CTN;F11;21.00;0;14.00;0;11.00;0;NAN;30;1
00000000014;00000008950176206894;52;RSC;0111;0099;CTN;D12;14.00;0;12.00;0;9.00;0;NAN;30;1
00000000014;00000008950176206895;52;RSC;0111;0099;CTN;B07;14.00;0;9.00;0;5.00;0;NAN;50;1
00000000014;00000008950176206896;52;RSC;0222;0099;CTN;A00;12.00;0;9.00;0;4.00;0;NAN;90;1
00000000014;00000008950176206897;52;RSC;0023;0099;CTN;D33;13.00;0;11.00;0;4.00;0;NAN;90;1
00000000014;00000008950176206898;52;RSC;0421;0099;CTN;A00;12.00;0;9.00;0;4.00;0;NAN;90;1
00000000014;00000008950176206899;52;RSC;0212;0099;CTN;A00;12.00;0;9.00;0;4.00;0;NAN;50;1
00000000014;00000008950176206900;52;RSC;0412;0099;CTN;309;21.00;0;13.00;0;4.00;0;NAN;70;1
00000000014;00000008950176206901;52;RSC;0023;0099;CTN;A00;12.00;0;9.00;0;4.00;0;NAN;70;1
00000000014;00000008950176206902;52;RSC;0322;0099;CTN;B09;14.00;0;9.00;0;4.50;0;NAN;70;1
00000000014;00000008950176206903;52;RSC;0111;0099;CTN;A00;12.00;0;9.00;0;4.00;0;NAN;80;1
00000000014;00000008950176206904;52;RSC;0112;0099;CTN;A00;12.00;0;9.00;0;4.00;0;NAN;80;1
00000000014;00000008950176206905;52;RSC;0424;0099;CTN;A00;12.00;0;9.00;0;4.00;0;NAN;40;1
00000000014;00000008950176206906;52;RSC;0423;0099;CTN;F24;16.00;0;14.00;0;10.50;0;NAN;80;1
00000000014;00000008950176206907;52;RSC;0114;0099;CTN;B14;12.00;0;10.00;0;4.00;0;NAN;90;1
00000000014;00000008950176206908;52;RSC;0022;0099;CTN;310;18.00;0;14.00;0;4.00;0;NAN;70;1
00000000014;00000008950176206909;52;RSC;0114;0099;CTN;310;18.00;0;14.00;0;4.00;0;NAN;20;1
00000000014;00000008950176206910;52;RSC;0112;0099;CTN;B02;14.00;0;10.00;0;6.50;0;NAN;70;1
00000000014;00000008950176206911;52;RSC;0113;0099;CTN;F00;21.62;0;15.00;0;13.31;0;NAN;20;1
00000000014;00000008950176206912;52;RSC;0023;0099;CTN;311;21.00;0;9.00;0;5.00;0;NAN;70;1
00000000014;00000008950176206913;52;RSC;0023;0099;CTN;312;19.00;0;9.00;0;4.00;0;NAN;70;1
00000000014;00000008950176206914;52;RSC;0211;0099;CTN;A00;12.00;0;9.00;0;4.00;0;NAN;40;1
00000000014;00000008950176206915;52;RSC;0023;0099;CTN;308;17.00;0;15.00;0;4.50;0;NAN;50;1
00000000014;00000008950176206916;52;RSC;0113;0099;CTN;A00;12.00;0;9.00;0;4.00;0;NAN;20;1
00000000014;00000008950176206917;52;RSC;0213;0099;CTN;D00;16.00;0;13.00;0;12.00;0;NAN;10;1
00000000014;00000008950176206918;52;RSC;0323;0099;CTN;D25;18.00;0;12.00;0;4.00;0;NAN;50;1
00000000014;00000008950176206919;52;RSC;0024;0099;CTN;D14;12.00;0;12.00;0;10.00;0;NAN;60;1
00000000014;00000008950176206920;52;RSC;0021;0099;CTN;D20;18.00;0;12.00;0;5.00;0;NAN;50;1
00000000014;00000008950176206921;52;RSC;0113;0099;CTN;F25;20.00;0;14.00;0;8.00;0;NAN;20;1
00000000014;00000008950176206922;52;RSC;0213;0099;CTN;A00;12.00;0;9.00;0;4.00;0;NAN;20;1
00000000014;00000008950176206923;52;RSC;0021;0099;CTN;A00;12.00;0;9.00;0;4.00;0;NAN;30;1
00000000014;00000008950176206924;52;RSC;0411;0099;CTN;C07;15.00;0;10.00;0;4.50;0;NAN;30;1
00000000014;00000008950176206925;52;RSC;0224;0099;CTN;D06;16.00;0;12.00;0;10.00;0;NAN;70;1
00000000014;00000008950176206926;52;RSC;0112;0099;CTN;D01;17.00;0;12.00;0;12.00;0;NAN;70;1
00000000014;00000008950176206927;101;RSC;0211;0099;CTN;D20;18.00;0;12.00;0;5.00;0;NAN;80;1
00000000014;00000008950176206928;101;RSC;0224;0099;CTN;F22;20.00;0;14.00;0;9.00;0;NAN;50;1
00000000014;00000008950176206929;52;RSC;0111;0099;CTN;D24;15.00;0;13.00;0;4.50;0;NAN;90;1
00000000014;00000008950176206930;52;RSC;0211;0099;CTN;D00;16.00;0;13.00;0;12.00;0;NAN;40;1
00000000014;00000008950176206931;52;RSC;0112;0099;CTN;301;20.00;0;15.00;0;6.00;0;NAN;40;1
00000000014;00000008950176206932;52;RSC;0213;0099;CTN;A00;12.00;0;9.00;0;4.00;0;NAN;10;1
00000000014;00000008950176206933;52;RSC;0024;0099;CTN;D18;13.00;0;11.00;0;9.00;0;NAN;40;1
00000000014;00000008950176206934;52;RSC;0112;0099;CTN;F21;17.00;0;14.00;0;11.00;0;NAN;60;1
00000000014;00000008950176206935;52;RSC;0022;0099;CTN;F00;21.62;0;15.00;0;13.31;0;NAN;50;1
00000000014;00000008950176206936;52;RSC;0022;0099;CTN;F18;19.00;0;12.00;0;12.00;0;NAN;50;1
00000000014;00000008950176206937;52;RSC;0214;0099;CTN;B13;12.00;0;9.00;0;4.50;0;NAN;40;1
00000000014;00000008950176206938;52;RSC;0222;0099;CTN;F26;19.00;0;13.00;0;9.00;0;NAN;40;1
00000000014;00000008950176206939;52;RSC;0223;0099;CTN;B14;12.00;0;10.00;0;4.00;0;NAN;60;1
00000000014;00000008950176206940;52;RSC;0413;0099;CTN;F23;20.00;0;15.00;0;8.00;0;NAN;90;1
00000000014;00000008950176206941;52;RSC;0211;0099;CTN;A00;12.00;0;9.00;0;4.00;0;NAN;90;1
00000000014;00000008950176206942;52;RSC;0213;0099;CTN;F09;20.00;0;14.00;0;12.50;0;NAN;60;1
00000000014;00000008950176206943;52;RSC;0314;0099;CTN;D07;16.00;0;13.00;0;9.00;0;NAN;10;1
00000000014;00000008950176206944;52;RSC;0022;0099;CTN;D07;16.00;0;13.00;0;9.00;0;NAN;40;1
00000000014;00000008950176206945;52;RSC;0112;0099;CTN;D15;13.00;0;12.00;0;9.00;0;NAN;20;1
00000000014;00000008950176206946;52;RSC;0021;0099;CTN;303;20.00;0;14.00;0;5.50;0;NAN;30;1
00000000014;00000008950176206947;52;RSC;0222;0099;CTN;F13;18.00;0;15.00;0;11.50;0;NAN;10;1
00000000014;00000008950176206948;52;RSC;0312;0099;CTN;A00;12.00;0;9.00;0;4.00;0;NAN;30;1
00000000014;00000008950176206949;52;RSC;0223;0099;CTN;B10;12.00;0;9.00;0;5.00;0;NAN;30;1
00000000014;00000008950176206950;52;RSC;0111;0099;CTN;D21;16.00;0;11.00;0;6.00;0;NAN;30;1
00000000014;00000008950176206951;52;RSC;0213;0099;CTN;A00;12.00;0;9.00;0;4.00;0;NAN;50;1
00000000014;00000008950176206952;52;RSC;0112;0099;CTN;C01;14.00;0;10.00;0;9.00;0;NAN;20;1
00000000014;00000008950176206953;52;RSC;0114;0099;CTN;309;21.00;0;13.00;0;4.00;0;NAN;80;1
00000000014;00000008950176206954;52;RSC;0213;0099;CTN;D00;16.00;0;13.00;0;12.00;0;NAN;60;1
00000000014;00000008950176206955;52;RSC;0211;0099;CTN;C06;15.00;0;10.00;0;5.00;0;NAN;70;1
00000000014;00000008950176206956;52;RSC;0211;0099;CTN;310;18.00;0;14.00;0;4.00;0;NAN;80;1
00000000014;00000008950176206957;52;RSC;0024;0099;CTN;B14;12.00;0;10.00;0;4.00;0;NAN;80;1
00000000014;00000008950176206958;52;RSC;0113;0099;CTN;B14;12.00;0;10.00;0;4.00;0;NAN;50;1
00000000014;00000008950176206959;52;RSC;0024;0099;CTN;B04;14.00;0;9.00;0;6.00;0;NAN;70;1
00000000014;00000008950176206960;52;RSC;0311;0099;CTN;F00;21.62;0;15.00;0;13.31;0;NAN;80;1
00000000014;00000008950176206961;52;RSC;0114;0099;CTN;C03;14.00;0;10.00;0;8.50;0;NAN;60;1
00000000014;00000008950176206962;52;RSC;0211;0099;CTN;B14;12.00;0;10.00;0;4.00;0;NAN;30;1
00000000014;00000008950176206963;52;RSC;0111;0099;CTN;A00;12.00;0;9.00;0;4.00;0;NAN;80;1
00000000014;00000008950176206964;52;RSC;0022;0099;CTN;F00;21.62;0;15.00;0;13.31;0;NAN;10;1
00000000014;00000008950176206965;52;RSC;0222;0099;CTN;F02;21.00;0;14.00;0;13.00;0;NAN;70;1
00000000014;00000008950176206966;52;RSC;0422;0099;CTN;B13;12.00;0;9.00;0;4.50;0;NAN;90;1
00000000014;00000008950176206967;52;RSC;0221;0099;CTN;A00;12.00;0;9.00;0;4.00;0;NAN;60;1
00000000014;00000008950176206968;52;RSC;0111;0099;CTN;B00;14.00;0;10.00;0;7.50;0;NAN;50;1
00000000014;00000008950176206969;52;RSC;0113;0099;CTN;F01;21.00;0;15.00;0;13.00;0;NAN;80;1
00000000014;00000008950176206970;52;RSC;0113;0099;CTN;F23;20.00;0;15.00;0;8.00;0;NAN;30;1
00000000014;00000008950176206971;52;RSC;0221;0099;CTN;D23;16.00;0;12.00;0;5.00;0;NAN;20;1
00000000014;00000008950176206972;52;RSC;0322;0099;CTN;D10;16.00;0;13.00;0;8.00;0;NAN;10;1
00000000014;00000008950176206973;52;RSC;0023;0099;CTN;F21;17.00;0;14.00;0;11.00;0;NAN;20;1
00000000014;00000008950176206974;52;RSC;0223;0099;CTN;A00;12.00;0;9.00;0;4.00;0;NAN;20;1
00000000014;00000008950176206975;52;RSC;0022;0099;CTN;D18;13.00;0;11.00;0;9.00;0;NAN;20;1
00000000014;00000008950176206976;52;RSC;0212;0099;CTN;312;19.00;0;9.00;0;4.00;0;NAN;20;1
00000000014;00000008950176206977;52;RSC;0224;0099;CTN;D11;15.00;0;11.00;0;9.50;0;NAN;90;1
00000000014;00000008950176206978;52;RSC;0113;0099;CTN;300;21.00;0;14.00;0;6.50;0;NAN;80;1
00000000014;00000008950176206979;52;RSC;0411;0099;CTN;D17;18.00;0;12.00;0;6.00;0;NAN;10;1
00000000014;00000008950176206980;52;RSC;0212;0099;CTN;A00;12.00;0;9.00;0;4.00;0;NAN;10;1
00000000014;00000008950176206981;52;RSC;0212;0099;CTN;F05;20.00;0;15.00;0;12.00;0;NAN;50;1
00000000014;00000008950176206982;52;RSC;0021;0099;CTN;D19;13.00;0;13.00;0;7.00;0;NAN;20;1
00000000014;00000008950176206983;52;RSC;0423;0099;CTN;F16;18.00;0;13.00;0;12.50;0;NAN;60;1
00000000014;00000008950176206984;52;RSC;0022;0099;CTN;D05;16.00;0;12.00;0;10.50;0;NAN;80;1
00000000014;00000008950176206985;52;RSC;0221;0099;CTN;D19;13.00;0;13.00;0;7.00;0;NAN;30;1
00000000014;00000008950176206986;52;RSC;0023;0099;CTN;D19;13.00;0;13.00;0;7.00;0;NAN;70;1
00000000014;00000008950176206987;52;RSC;0111;0099;CTN;F28;17.00;0;15.00;0;8.00;0;NAN;70;1
00000000014;00000008950176206988;101;RSC;0421;0099;CTN;D04;18.00;0;12.00;0;9.50;0;NAN;20;1
00000000014;00000008950176206989;52;RSC;0314;0099;CTN;F00;21.62;0;15.00;0;13.31;0;NAN;50;1
00000000014;00000008950176206990;52;RSC;0113;0099;CTN;F00;21.62;0;15.00;0;13.31;0;NAN;80;1
00000000014;00000008950176206991;52;RSC;0221;0099;CTN;F18;19.00;0;12.00;0;12.00;0;NAN;20;1
00000000014;00000008950176206992;52;RSC;0314;0099;CTN;F00;21.62;0;15.00;0;13.31;0;NAN;30;1
00000000014;00000008950176206993;52;RSC;0211;0099;CTN;F00;21.62;0;15.00;0;13.31;0;NAN;30;1
00000000014;00000008950176206994;52;RSC;0021;0099;CTN;310;18.00;0;14.00;0;4.00;0;NAN;10;1
00000000014;00000008950176206995;52;RSC;0022;0099;CTN;306;15.00;0;14.00;0;6.00;0;NAN;10;1
00000000014;00000008950176206996;52;RSC;0113;0099;CTN;A00;12.00;0;9.00;0;4.00;0;NAN;10;1
00000000014;00000008950176206997;52;RSC;0312;0099;CTN;D01;17.00;0;12.00;0;12.00;0;NAN;40;1
00000000014;00000008950176206998;52;RSC;0111;0099;CTN;C04;12.00;0;10.00;0;9.00;0;NAN;60;1
00000000014;00000008950176206999;101;RSC;0312;0099;CTN;D10;16.00;0;13.00;0;8.00;0;NAN;20;1
